<?xml version="1.0" encoding="UTF-8" standalone="no"?>
<!-- Created with Inkscape (http://www.inkscape.org/) -->

<svg
   width="170mm"
   height="205mm"
   viewBox="0 0 170 205"
   version="1.1"
   id="svg5"
   inkscape:version="1.1.1 (3bf5ae0d25, 2021-09-20)"
   sodipodi:docname="l-hind-stifle-cdl-crmo.svg"
   xmlns:inkscape="http://www.inkscape.org/namespaces/inkscape"
   xmlns:sodipodi="http://sodipodi.sourceforge.net/DTD/sodipodi-0.dtd"
   xmlns:xlink="http://www.w3.org/1999/xlink"
   xmlns="http://www.w3.org/2000/svg"
   xmlns:svg="http://www.w3.org/2000/svg">
  <sodipodi:namedview
     id="namedview7"
     pagecolor="#ffffff"
     bordercolor="#666666"
     borderopacity="1.0"
     inkscape:pageshadow="2"
     inkscape:pageopacity="0.0"
     inkscape:pagecheckerboard="0"
     inkscape:document-units="mm"
     showgrid="true"
     inkscape:zoom="1.9019382"
     inkscape:cx="-113.04258"
     inkscape:cy="577.56871"
     inkscape:window-width="2560"
     inkscape:window-height="1376"
     inkscape:window-x="0"
     inkscape:window-y="0"
     inkscape:window-maximized="1"
     inkscape:current-layer="layer1"
     inkscape:lockguides="false"
     inkscape:snap-global="true">
    <inkscape:grid
       type="xygrid"
       id="grid937"
       units="mm"
       spacingx="0.99999999"
       spacingy="0.99999999" />
  </sodipodi:namedview>
  <defs
     id="defs2">
    <clipPath
       clipPathUnits="userSpaceOnUse"
       id="clipPath218328">
      <rect
         style="fill:#ffaaaa;fill-opacity:1;stroke:none;stroke-width:1.00661;stroke-opacity:1"
         id="rect218330"
         width="54.999996"
         height="58.55283"
         x="15"
         y="145" />
    </clipPath>
    <clipPath
       clipPathUnits="userSpaceOnUse"
       id="clipPath218332">
      <rect
         style="fill:#ffaaaa;fill-opacity:1;stroke:none;stroke-width:0.97155;stroke-opacity:1"
         id="rect218334"
         width="60"
         height="50.000004"
         x="10"
         y="109.99999" />
    </clipPath>
    <clipPath
       clipPathUnits="userSpaceOnUse"
       id="clipPath218336">
      <rect
         style="fill:#ffaaaa;fill-opacity:1;stroke:none;stroke-width:0.524698;stroke-opacity:1"
         id="rect218338"
         width="35"
         height="25.000002"
         x="0"
         y="109.99999" />
    </clipPath>
  </defs>
  <g
     inkscape:label="Layer 1"
     inkscape:groupmode="layer"
     id="layer1">
    <image
       width="80"
       height="93.552834"
       preserveAspectRatio="none"
       xlink:href="l-hind-stifle-cdl-crmo-0020.png"
       id="image1104"
       x="0"
       y="110"
       style="stroke-width:6.22763;fill:#ffaaaa" />
    <image
       width="80"
       height="93.552834"
       preserveAspectRatio="none"
       xlink:href="l-hind-stifle-cdl-crmo-0020.png"
       id="image1102"
       x="90"
       y="5"
       style="stroke-width:6.22763" />
    <text
       xml:space="preserve"
       style="font-size:4.23333px;line-height:1.25;font-family:STIX;-inkscape-font-specification:'STIX, Normal';letter-spacing:0px;word-spacing:0px;stroke-width:0.264583"
       x="0.99483335"
       y="3.9416666"
       id="text3814"><tspan
         sodipodi:role="line"
         id="tspan3812"
         style="stroke-width:0.264583"
         x="0.99483335"
         y="3.9416666">A</tspan></text>
    <text
       xml:space="preserve"
       style="font-size:4.23333px;line-height:1.25;font-family:STIX;-inkscape-font-specification:'STIX, Normal';letter-spacing:0px;word-spacing:0px;stroke-width:0.264583"
       x="0.98635775"
       y="108.94167"
       id="text5336"><tspan
         sodipodi:role="line"
         id="tspan5334"
         style="stroke-width:0.264583"
         x="0.98635775"
         y="108.94167">C</tspan></text>
    <text
       xml:space="preserve"
       style="font-size:4.23333px;line-height:1.25;font-family:STIX;-inkscape-font-specification:'STIX, Normal';letter-spacing:0px;word-spacing:0px;stroke-width:0.264583"
       x="90.939804"
       y="3.8824"
       id="text6286"><tspan
         sodipodi:role="line"
         id="tspan6284"
         style="stroke-width:0.264583"
         x="90.939804"
         y="3.8824">B</tspan></text>
    <rect
       style="fill:#01befe;fill-opacity:1;stroke:none;stroke-width:1;paint-order:markers stroke fill;stop-color:#000000"
       id="rect8502"
       width="5"
       height="5"
       x="90"
       y="110" />
    <rect
       style="fill:#ffdd00;fill-opacity:1;stroke:none;stroke-width:1;paint-order:markers stroke fill;stop-color:#000000"
       id="rect8606"
       width="5"
       height="5"
       x="90"
       y="120" />
    <rect
       style="fill:#ff7d00;fill-opacity:1;stroke:none;stroke-width:1;paint-order:markers stroke fill;stop-color:#000000"
       id="rect8608"
       width="5"
       height="5"
       x="90"
       y="130" />
    <rect
       style="fill:#ff006d;fill-opacity:1;stroke:none;stroke-width:1;paint-order:markers stroke fill;stop-color:#000000"
       id="rect8610"
       width="5"
       height="5"
       x="90"
       y="140" />
    <text
       xml:space="preserve"
       style="font-size:4.23333px;line-height:1.25;font-family:STIX;-inkscape-font-specification:'STIX, Normal';letter-spacing:0px;word-spacing:0px;stroke-width:0.264583"
       x="101.20883"
       y="113.90123"
       id="text9009"><tspan
         sodipodi:role="line"
         id="tspan9007"
         style="stroke-width:0.264583"
         x="101.20883"
         y="113.90123">Patella</tspan></text>
    <text
       xml:space="preserve"
       style="font-size:4.23333px;line-height:1.25;font-family:STIX;-inkscape-font-specification:'STIX, Normal';letter-spacing:0px;word-spacing:0px;stroke-width:0.264583"
       x="101.20883"
       y="123.90123"
       id="text11377"><tspan
         sodipodi:role="line"
         id="tspan11375"
         style="stroke-width:0.264583"
         x="101.20883"
         y="123.90123">Femur</tspan></text>
    <text
       xml:space="preserve"
       style="font-size:4.23333px;line-height:1.25;font-family:STIX;-inkscape-font-specification:'STIX, Normal';letter-spacing:0px;word-spacing:0px;stroke-width:0.264583"
       x="101.20883"
       y="133.90123"
       id="text11381"><tspan
         sodipodi:role="line"
         id="tspan11379"
         style="stroke-width:0.264583"
         x="101.20883"
         y="133.90123">Tibia</tspan></text>
    <text
       xml:space="preserve"
       style="font-size:4.23333px;line-height:1.25;font-family:STIX;-inkscape-font-specification:'STIX, Normal';letter-spacing:0px;word-spacing:0px;stroke-width:0.264583"
       x="101.20883"
       y="143.90123"
       id="text11385"><tspan
         sodipodi:role="line"
         id="tspan11383"
         style="stroke-width:0.264583"
         x="101.20883"
         y="143.90123">Fibula</tspan></text>
    <rect
       style="fill:none;fill-opacity:1;stroke:#ff0000;stroke-width:1;stroke-opacity:1;paint-order:markers stroke fill;stop-color:#000000"
       id="rect16194"
       width="24.043474"
       height="22.999998"
       x="134"
       y="28" />
    <image
       width="80"
       height="93.552834"
       preserveAspectRatio="none"
       xlink:href="l-hind-stifle-cdl-crmo-0020.png"
       id="image1098"
       x="0"
       y="5"
       style="stroke-width:6.22763" />
    <rect
       style="fill:none;fill-opacity:1;stroke:#ff0000;stroke-width:0.999997;stroke-opacity:1;paint-order:markers stroke fill;stop-color:#000000"
       id="rect43399"
       width="12"
       height="22.999998"
       x="98"
       y="19" />
    <rect
       style="fill:none;fill-opacity:1;stroke:#ff00ff;stroke-width:0.999998;stroke-opacity:1;paint-order:markers stroke fill;stop-color:#000000"
       id="rect43401"
       width="69"
       height="77.999992"
       x="94"
       y="10" />
    <path
       style="fill:#01befe;stroke:#01befe;stroke-width:0.264583px;stroke-linecap:butt;stroke-linejoin:miter;stroke-opacity:1;fill-opacity:1"
       d="m 24.410962,107.53606 c 0.376644,1.54978 1.848674,2.38525 2.382283,3.85986 0.279831,0.77331 0.224568,1.63779 0.36472,2.43944 0.139441,0.79756 0.382609,1.52357 0.0078,2.31592 -0.809454,1.71101 -2.735997,2.45389 -4.112749,3.65915 -0.690216,0.60424 -1.612602,1.09599 -2.056375,1.92994 -0.277645,0.52175 -0.346195,1.17631 -0.550957,1.72922 -0.791051,2.13602 -1.038143,2.84982 -2.529726,4.53148 -0.365825,0.41245 -0.690261,0.86615 -1.202783,1.11164 -1.143086,0.54753 -2.313528,-0.26884 -3.41436,-0.59442 -1.88674,-0.55801 -3.4484986,-1.83702 -4.8887374,-3.12649 -0.404858,-0.36247 -0.8792561,-0.63689 -1.1950308,-1.08848 -0.5470646,-0.78236 -0.8986078,-1.68787 -1.3036616,-2.54751 -0.3560693,-0.75569 -0.8091537,-1.4657 -1.1329463,-2.23873 -0.2330874,-0.55647 -0.3278939,-1.13786 -0.5121537,-1.70606 -0.1482826,-0.45726 -0.4038695,-0.87353 -0.5431959,-1.33551 -0.6382213,-2.11623 -1.0411291,-4.48563 -0.7992684,-6.68529 0.048268,-0.43899 0.4290565,-3.861 0.8147896,-4.05286"
       id="path183294"
       clip-path="url(#clipPath218336)" />
    <path
       style="fill:#ffdd00;stroke:#ffdd00;stroke-width:0.264583px;stroke-linecap:butt;stroke-linejoin:miter;stroke-opacity:1;fill-opacity:1"
       d="m 48.257145,107.84485 c 0.15078,0.50315 0.306675,1.01256 0.37248,1.53622 0.299807,2.38586 0.597784,4.74463 1.505418,7.0018 0.440748,1.09608 1.02652,2.13649 1.443345,3.24229 0.991682,2.63085 1.83008,5.08448 3.701475,7.25655 0.806993,0.93665 2.026907,1.4081 3.080682,2.00713 0.823944,0.46838 1.558398,1.072 2.304695,1.65203 2.267622,1.76239 3.083595,4.74984 3.841157,7.38778 0.743474,2.58889 1.736929,5.88456 0.488863,8.49171 -0.43026,0.89879 -1.253937,1.60304 -1.908942,2.33136 -0.450734,0.50119 -0.803127,1.06227 -1.342454,1.48219 -2.355537,1.834 -5.460664,1.71044 -8.241022,1.62114 -1.258617,-0.0404 -2.615176,0.18889 -3.802356,-0.37055 -2.777783,-1.30899 -3.069053,-7.19209 -5.719045,-7.81237 -1.963211,-0.45953 -3.234793,0.93315 -4.508505,2.20013 -1.611236,1.60271 -3.479507,2.96838 -5.04394,4.6164 -0.873207,0.91985 -1.361599,2.18418 -2.320208,3.0107 -1.278178,1.10205 -3.387265,1.7083 -5.04394,1.63658 -2.070471,-0.0896 -1.84595,-2.33535 -3.352276,-2.91807 -1.418861,-0.54888 -3.469519,0.59359 -4.648185,-0.57897 -0.63436,-0.63108 -0.958674,-2.85394 -1.17951,-3.80583 -0.04651,-0.20048 -0.04509,-0.51892 -0.162955,-0.69478 -0.834865,-1.24568 -1.445483,-2.11639 -1.660621,-3.77495 -0.104691,-0.80709 -0.06174,-1.65291 -0.232799,-2.44715 -0.108156,-0.50217 -0.312285,-0.97017 -0.395754,-1.48219 -0.115413,-0.70798 -0.07617,-1.41011 -0.100879,-2.12293 -0.02232,-0.64387 -0.150918,-1.30287 -0.131921,-1.94537 0.0866,-2.92892 1.200307,-6.22443 2.754774,-8.6847 0.90455,-1.43165 2.186823,-2.55868 3.204834,-3.88303 0.925595,-1.20413 1.472908,-2.60944 2.506453,-3.75179 0.573641,-0.63403 1.258288,-1.0727 1.7615,-1.79098 0.569437,-0.8128 0.989417,-1.71596 1.505418,-2.56295 0.660566,-1.08429 1.380873,-2.13319 2.025332,-3.22685 0.324702,-0.55102 1.026025,-2.34477 1.652863,-2.60155"
       id="path189019"
       clip-path="url(#clipPath218332)" />
    <path
       style="fill:#ff7d00;stroke:#ff7d00;stroke-width:0.264583px;stroke-linecap:butt;stroke-linejoin:miter;stroke-opacity:1;fill-opacity:1"
       d="m 64.89439,210.22397 c -0.468815,-1.26238 -1.066472,-2.48521 -1.389036,-3.79812 -1.094242,-4.45382 -0.931087,-9.58249 -0.713901,-14.11939 0.09916,-2.07137 0.31315,-4.17101 0.193995,-6.24527 -0.12637,-2.19988 -0.695092,-4.3511 -0.907907,-6.53861 -0.140584,-1.44505 -0.02328,-2.86236 -0.02328,-4.30761 0,-1.55368 -0.193379,-3.19424 0.05431,-4.73992 0.253021,-1.57892 0.720749,-3.16992 1.101913,-4.72448 0.320479,-1.30705 0.548836,-2.6417 0.977744,-3.92162 0.477205,-1.42405 1.646923,-2.73357 1.707184,-4.29217 0.02553,-0.6604 -0.390482,-1.17412 -0.690636,-1.7215 -0.659654,-1.20299 -1.833251,-1.59242 -3.080682,-1.86818 -0.522938,-0.1156 -1.000468,-0.31365 -1.544222,-0.30107 -1.363509,0.0315 -2.611882,0.44382 -3.996351,0.36282 -1.730991,-0.10127 -3.456382,-0.10784 -5.183613,-0.28563 -0.551003,-0.0567 -1.149641,0.0305 -1.683901,-0.14667 -0.453972,-0.15054 -0.881221,-0.44271 -1.233826,-0.76425 -0.486291,-0.44346 -1.023422,-0.93215 -1.357985,-1.50535 -0.773668,-1.3255 -2.026012,-5.35021 -3.87995,-5.44241 -1.833674,-0.0912 -2.258124,0.55524 -3.414353,1.87589 -0.78931,0.90155 -1.577544,1.87692 -2.436617,2.70963 -0.980622,0.95052 -2.097585,1.51591 -3.204842,2.2696 -1.116073,0.75969 -2.214422,1.56184 -3.313475,2.3468 -2.323581,1.65955 -3.178069,3.19113 -6.192406,3.73635 -0.920321,0.16646 -3.520551,0.59209 -4.058426,1.37412 -0.816064,1.18648 -0.09446,3.42271 0.364711,4.59324 0.342976,0.87431 0.729439,1.96659 1.334704,2.69418 0.518155,0.62288 1.091232,1.20011 1.583024,1.84502 0.725744,0.95169 1.280567,2.02087 2.033094,2.95666 0.969848,1.20602 2.128655,2.22952 3.127237,3.41212 0.920713,1.09039 1.910466,2.21313 2.739252,3.37352 0.841434,1.1781 1.559936,2.44344 2.390045,3.62828 0.672264,0.95954 1.490742,1.80996 2.157254,2.77138 1.063487,1.53405 1.862545,3.30252 2.684928,4.97151 1.773415,3.59907 2.976301,7.36652 3.996351,11.23222 0.136941,0.51896 1.206228,5.40038 1.443342,5.58908"
       id="path208476"
       clip-path="url(#clipPath218328)" />
    <path
       style="fill:#ff006d;stroke:#ff006d;stroke-width:0.264583px;stroke-linecap:butt;stroke-linejoin:miter;stroke-opacity:1;fill-opacity:1"
       d="m 30.324007,175.36164 c 0.285945,2.02461 0.572867,4.0711 0.931187,6.09087 0.257728,1.45275 0.716513,2.77605 1.334704,4.11462 0.530141,1.1479 0.907301,2.34569 1.389028,3.51248 0.37374,0.90523 0.81729,1.78048 1.187262,2.68646 0.280787,0.68759 0.616482,1.32932 0.977744,1.97626 0.133435,0.23895 0.312079,0.46903 0.411277,0.72565 0.01744,0.0451 0.06746,0.17933 0.06208,0.13123 -0.101092,-0.90506 -0.546087,-1.81018 -0.768236,-2.69418 -0.482359,-1.91947 -0.90687,-4.0521 -1.063101,-6.02139 -0.09289,-1.17088 -0.03955,-2.37956 0.116401,-3.54336 0.139602,-1.04182 0.554394,-2.13934 0.364709,-3.19597 -0.228579,-1.27329 -1.812337,-2.85683 -2.972043,-3.34264 -0.58723,-0.246 -1.3511,-0.25282 -1.971016,-0.44003 z"
       id="path212924" />
    <text
       xml:space="preserve"
       style="font-size:4.23333px;line-height:1.25;font-family:STIX;-inkscape-font-specification:'STIX, Normal';letter-spacing:0px;word-spacing:0px;stroke-width:0.264583"
       x="2.5950334"
       y="114.91912"
       id="text56510"><tspan
         sodipodi:role="line"
         id="tspan56508"
         style="fill:#ffffff;stroke-width:0.264583"
         x="2.5950334"
         y="114.91912">L</tspan></text>
  </g>
</svg>
