Reference,Dataset Name,Number of Categories,Number of Images,Study Type,Image Colour Mode
[@khoslaNovelDatasetFineGrained2011],Stanford Dogs Dataset,120,20580,Dogs,RGB
[@wahCaltechUCSDBirds2002011Dataset2011],Caltech-UCSD 200 Birds,200,11788,Birds,RGB
[@linMicrosoftCOCOCommon2015],COCO 2020 Object Detection Task,80,>200000,Real world,RGB
[@nilsbackAutomatedFlowerClassification2008],Oxford 102 Flower,103,8189,Flower,RGB
[@dengImageNetLargescaleHierarchical2009],ImageNet,21841,14197122,Real world,RGB
[@larsonPerformanceDeepLearningNeural2018],RSNA Pediatric Bone Age Challenge,20,14036,Hands,Grayscale (8-bits)
[@rajpurkarMURALargeDataset2018],MURA,7,40561,Musculoskeletal,Grayscale (8-bits)
[@varmaAutomatedAbnormalityDetection2019],LERA,2,93455,Musculoskeletal,Grayscale (8-bits)
[@irvinCheXpertLargeChest2019],CheXpert,14,224316,Chest,Grayscale (8-bits)
[@thehongkongjockeyclubHongKongJockey2021],The Hong Kong Jockey Club Radiographs,48,Unknown,Musculoskeletal,Grayscale (8-bits)
