<?xml version="1.0" encoding="UTF-8" standalone="no"?>
<!-- Created with Inkscape (http://www.inkscape.org/) -->

<svg
   width="170mm"
   height="220mm"
   viewBox="0 0 170 220"
   version="1.1"
   id="svg5"
   inkscape:version="1.1.1 (3bf5ae0d25, 2021-09-20)"
   sodipodi:docname="l-fore-carpus-flexed-dp.svg"
   xmlns:inkscape="http://www.inkscape.org/namespaces/inkscape"
   xmlns:sodipodi="http://sodipodi.sourceforge.net/DTD/sodipodi-0.dtd"
   xmlns:xlink="http://www.w3.org/1999/xlink"
   xmlns="http://www.w3.org/2000/svg"
   xmlns:svg="http://www.w3.org/2000/svg">
  <sodipodi:namedview
     id="namedview7"
     pagecolor="#ffffff"
     bordercolor="#666666"
     borderopacity="1.0"
     inkscape:pageshadow="2"
     inkscape:pageopacity="0.0"
     inkscape:pagecheckerboard="0"
     inkscape:document-units="mm"
     showgrid="true"
     inkscape:zoom="1.9642415"
     inkscape:cx="307.49783"
     inkscape:cy="712.48877"
     inkscape:window-width="2560"
     inkscape:window-height="1376"
     inkscape:window-x="0"
     inkscape:window-y="0"
     inkscape:window-maximized="1"
     inkscape:current-layer="layer1"
     inkscape:lockguides="false"
     inkscape:snap-global="false">
    <inkscape:grid
       type="xygrid"
       id="grid937"
       units="mm"
       spacingx="0.99999999"
       spacingy="0.99999999" />
  </sodipodi:namedview>
  <defs
     id="defs2">
    <clipPath
       clipPathUnits="userSpaceOnUse"
       id="clipPath21380">
      <rect
         style="fill:#ffd5d5;fill-opacity:1;stroke:none;stroke-width:0.968669;stroke-opacity:1"
         id="rect21382"
         width="54.999996"
         height="39.999992"
         x="0"
         y="80" />
    </clipPath>
    <clipPath
       clipPathUnits="userSpaceOnUse"
       id="clipPath26233">
      <rect
         style="fill:#ffd5d5;fill-opacity:1;stroke:none;stroke-width:0.264583;stroke-opacity:1"
         id="rect26235"
         width="45"
         height="19.999998"
         x="10"
         y="80" />
    </clipPath>
  </defs>
  <g
     inkscape:label="Layer 1"
     inkscape:groupmode="layer"
     id="layer1">
    <image
       width="80"
       height="66.175224"
       preserveAspectRatio="none"
       xlink:href="l-fore-carpus-flexed-dp-0020.png"
       id="image1104"
       x="1.4210855e-14"
       y="80"
       style="fill:#ffd5d5;stroke-width:5.47357" />
    <image
       width="80"
       height="66.175224"
       preserveAspectRatio="none"
       xlink:href="l-fore-carpus-flexed-dp-0020.png"
       id="image1102"
       x="90"
       y="5"
       style="stroke-width:5.47357" />
    <text
       xml:space="preserve"
       style="font-size:4.23333px;line-height:1.25;font-family:STIX;-inkscape-font-specification:'STIX, Normal';letter-spacing:0px;word-spacing:0px;stroke-width:0.264583"
       x="0.99483335"
       y="3.9416666"
       id="text3814"><tspan
         sodipodi:role="line"
         id="tspan3812"
         style="stroke-width:0.264583"
         x="0.99483335"
         y="3.9416666">A</tspan></text>
    <text
       xml:space="preserve"
       style="font-size:4.23333px;line-height:1.25;font-family:STIX;-inkscape-font-specification:'STIX, Normal';letter-spacing:0px;word-spacing:0px;stroke-width:0.264583"
       x="0.98635775"
       y="78.941673"
       id="text5336"><tspan
         sodipodi:role="line"
         id="tspan5334"
         style="stroke-width:0.264583"
         x="0.98635775"
         y="78.941673">C</tspan></text>
    <text
       xml:space="preserve"
       style="font-size:4.23333px;line-height:1.25;font-family:STIX;-inkscape-font-specification:'STIX, Normal';letter-spacing:0px;word-spacing:0px;stroke-width:0.264583"
       x="90.939804"
       y="3.8824"
       id="text6286"><tspan
         sodipodi:role="line"
         id="tspan6284"
         style="stroke-width:0.264583"
         x="90.939804"
         y="3.8824">B</tspan></text>
    <rect
       style="fill:none;fill-opacity:1;stroke:#ff0000;stroke-width:0.999999;stroke-opacity:1;paint-order:markers stroke fill;stop-color:#000000"
       id="rect16194"
       width="25.000002"
       height="11.999998"
       x="56.568542"
       y="115.96551"
       transform="rotate(-45)" />
    <image
       width="80"
       height="66.175224"
       preserveAspectRatio="none"
       xlink:href="l-fore-carpus-flexed-dp-0020.png"
       id="image858"
       x="1.4210855e-14"
       y="5"
       style="stroke-width:5.47357" />
    <rect
       style="fill:none;fill-opacity:1;stroke:#ff00ff;stroke-width:0.999998;stroke-opacity:1;paint-order:markers stroke fill;stop-color:#000000"
       id="rect168537"
       width="34.000004"
       height="24"
       x="52.267029"
       y="106.06602"
       transform="rotate(-45)" />
    <rect
       style="fill:#01befe;fill-opacity:1;stroke:none;stroke-width:1;paint-order:markers stroke fill;stop-color:#000000"
       id="rect8502-6"
       width="5"
       height="5"
       x="90"
       y="80" />
    <rect
       style="fill:#ffdd00;fill-opacity:1;stroke:none;stroke-width:1;paint-order:markers stroke fill;stop-color:#000000"
       id="rect8606-0"
       width="5"
       height="5"
       x="90"
       y="90" />
    <rect
       style="fill:#ff7d00;fill-opacity:1;stroke:none;stroke-width:1;paint-order:markers stroke fill;stop-color:#000000"
       id="rect8608-6"
       width="5"
       height="5"
       x="90"
       y="100" />
    <rect
       style="fill:#ff006d;fill-opacity:1;stroke:none;stroke-width:1;paint-order:markers stroke fill;stop-color:#000000"
       id="rect8610-2"
       width="5"
       height="5"
       x="90"
       y="110" />
    <text
       xml:space="preserve"
       style="font-size:4.23333px;line-height:1.25;font-family:STIX;-inkscape-font-specification:'STIX, Normal';letter-spacing:0px;word-spacing:0px;stroke-width:0.264583"
       x="101.20883"
       y="83.90123"
       id="text9009-6"><tspan
         sodipodi:role="line"
         id="tspan9007-1"
         style="stroke-width:0.264583"
         x="101.20883"
         y="83.90123">Radius</tspan></text>
    <text
       xml:space="preserve"
       style="font-size:4.23333px;line-height:1.25;font-family:STIX;-inkscape-font-specification:'STIX, Normal';letter-spacing:0px;word-spacing:0px;stroke-width:0.264583"
       x="101.20883"
       y="93.901199"
       id="text11377-8"><tspan
         sodipodi:role="line"
         id="tspan11375-7"
         style="stroke-width:0.264583"
         x="101.20883"
         y="93.901199">Proximal carpal row</tspan></text>
    <text
       xml:space="preserve"
       style="font-size:4.23333px;line-height:1.25;font-family:STIX;-inkscape-font-specification:'STIX, Normal';letter-spacing:0px;word-spacing:0px;stroke-width:0.264583"
       x="101.20883"
       y="103.90121"
       id="text11381-9"><tspan
         sodipodi:role="line"
         id="tspan11379-2"
         style="stroke-width:0.264583"
         x="101.20883"
         y="103.90121">Distal carpal row</tspan></text>
    <text
       xml:space="preserve"
       style="font-size:4.23333px;line-height:1.25;font-family:STIX;-inkscape-font-specification:'STIX, Normal';letter-spacing:0px;word-spacing:0px;stroke-width:0.264583"
       x="101.20883"
       y="113.90121"
       id="text11385-0"><tspan
         sodipodi:role="line"
         id="tspan11383-2"
         style="stroke-width:0.264583"
         x="101.20883"
         y="113.90121">Metacarpus</tspan></text>
    <path
       style="fill:#ff7d00;fill-opacity:1;stroke:#ff7d00;stroke-width:0.264583px;stroke-linecap:butt;stroke-linejoin:miter;stroke-opacity:1"
       d="m 43.720123,92.774578 c 0.210388,-0.01744 0.420052,-0.05232 0.63116,-0.05232 0.346284,0 3.186343,2.560166 3.576556,2.989948 0.832257,0.916654 1.833271,1.702247 2.457,2.788126 2.064983,3.595028 1.917599,7.627978 0.736351,11.473928 -0.737425,2.40095 -2.027592,4.36065 -3.877103,6.04718 -0.570431,0.52016 -1.05686,1.04396 -1.773251,1.36789 -0.655735,0.29651 -1.409004,0.54605 -2.126398,0.61295 -0.7322,0.0683 -1.406932,-0.0442 -2.126401,0.19434 -0.835257,0.27695 -1.445175,0.77493 -2.216557,1.15861 -1.350907,0.67193 -3.302664,1.47747 -4.846389,1.29315 -0.895395,-0.1069 -1.284158,-0.9505 -2.088827,-1.27073 -1.136925,-0.45245 -2.51133,0.12217 -3.591576,-0.47839 -0.980474,-0.5451 -1.583465,-1.69206 -2.479552,-2.36954 -1.100594,-0.83209 -2.509121,-1.01045 -3.478876,-2.05558 -1.12507,-1.21253 -1.489593,-2.6842 -2.08131,-4.17846 -0.858132,-2.16703 -1.657124,-4.2988 -2.021207,-6.60779 -0.235491,-1.49346 -0.812188,-2.98543 -0.368172,-4.499869 0.617535,-2.106279 2.661369,-4.322995 4.68859,-5.180086 1.00308,-0.424096 2.063271,-0.541648 3.08816,-0.874565 1.19868,-0.389371 2.313084,-0.818446 3.576554,-0.971732 1.855761,-0.225142 3.721973,-0.466469 5.537655,-0.926886 1.338334,-0.33937 2.697533,-1.065699 4.110027,-0.904454 1.677855,0.191534 1.785549,0.952621 2.952911,1.75659 0.552511,0.380518 1.133486,0.445053 1.720655,0.68769 z"
       id="path9483" />
    <path
       style="fill:#ffdd00;fill-opacity:1;stroke:#ffdd00;stroke-width:0.264583px;stroke-linecap:butt;stroke-linejoin:miter;stroke-opacity:1"
       d="m 50.302188,77.309061 c 0.02305,0.178763 0.0259,0.452554 0.09768,0.657791 0.368478,1.053777 0.856539,2.081747 1.164633,3.1544 0.230947,0.804063 0.332388,1.636932 0.571045,2.444281 0.153757,0.520145 0.400528,1.037373 0.503422,1.569723 0.545531,2.822464 0.79864,6.501791 0.593588,9.35854 -0.07509,1.046181 -0.02154,3.274806 -1.02938,3.976634 -0.694661,0.48373 -1.109311,-2.898912 -1.232263,-3.296417 -0.184631,-0.596924 -0.742399,-0.665014 -0.871595,-0.02244 -0.133221,0.662604 0.184533,1.400951 0.165301,2.070545 -0.01601,0.557461 -0.118573,1.106067 -0.142759,1.659422 -0.08898,2.03583 -0.02111,4.08145 -0.578559,6.06213 -0.350247,1.24451 -0.837136,2.53007 -1.690598,3.52066 -0.34594,0.40153 -0.954661,0.56175 -1.322427,0.99416 -0.849646,0.99898 -1.326533,2.29816 -2.239108,3.26652 -1.67868,1.78129 -3.39264,2.36464 -5.620295,3.05722 -0.334213,0.10391 -0.588089,0.40438 -0.939225,0.47092 -1.419725,0.26903 -2.942088,0.52681 -4.350473,0.0598 -2.135401,-0.70808 -4.303463,-2.18219 -5.710459,-3.93179 -0.697175,-0.86692 -1.230412,-1.84507 -1.863423,-2.75822 -0.582777,-0.84069 -1.248784,-1.63105 -1.803306,-2.48914 -0.631871,-0.97778 -1.14175,-2.01853 -1.69059,-3.04227 -0.32027,-0.59739 -0.743286,-1.13222 -1.066962,-1.7267 -0.370801,-0.68102 -0.598725,-1.43045 -0.946731,-2.12286 -0.331514,-0.659602 -0.772884,-1.275393 -1.157122,-1.906096 -0.515346,-0.845908 -2.425732,-5.097317 -3.118214,-5.44171 -0.353678,-0.175895 -0.764979,0.852252 -0.886628,1.053955 -0.638543,1.058746 -1.59812,3.620225 -3.223407,3.32632 C 10.729752,97.06023 10.655778,94.90263 10.253791,94.022872 9.6882444,92.785159 8.7683471,91.77307 8.1048518,90.591906 7.4206716,89.373921 6.7230902,88.122224 6.1662987,86.839519 5.6826118,85.725229 5.3457903,84.548844 4.8889589,83.423505 4.0244622,81.29394 2.776452,79.217104 2.1464319,77.002589 2.0633178,76.710444 1.6156957,75.573527 1.9435597,75.410437"
       id="path14403"
       clip-path="url(#clipPath21380)" />
    <path
       style="fill:#01befe;fill-opacity:1;stroke:#01befe;stroke-width:0.264583px;stroke-linecap:butt;stroke-linejoin:miter;stroke-opacity:1"
       d="m 49.468156,76.992873 c -0.133927,0.592905 -0.185825,0.47642 -0.127728,0.852136 0.149963,0.969827 0.558715,1.889749 0.751374,2.84793 0.323996,1.611381 0.689613,3.224998 0.87911,4.858663 0.102304,0.881975 0.03813,1.762611 0.07514,2.646111 0.05272,1.258612 -0.117412,3.110611 -1.172147,3.969152 -0.454528,0.369977 -1.230937,0.01958 -1.683086,-0.164444 -0.62879,-0.255913 -1.160711,-0.67968 -1.79579,-0.926886 -2.006402,-0.780989 -4.392949,-1.024932 -6.529465,-0.680209 -2.285748,0.368803 -4.203186,1.28937 -6.364165,1.973368 -1.438566,0.455338 -2.906525,0.655254 -4.365498,1.031526 -1.099085,0.283456 -2.168581,0.741548 -3.245947,1.098812 -1.183137,0.39234 -5.558564,2.406155 -6.672234,2.003269 C 17.399222,95.844433 15.472624,91.397224 15.130229,89.580565 14.976171,88.763178 14.56383,88.020214 14.408905,87.211026 14.20837,86.163615 14.17713,85.10113 13.988136,84.056632 13.721487,82.582974 13.413529,81.129427 13.447141,79.62403 c 0.01237,-0.553926 -0.189389,-1.603859 0.255468,-1.98084"
       id="path21606"
       clip-path="url(#clipPath26233)" />
    <text
       xml:space="preserve"
       style="font-size:4.23333px;line-height:1.25;font-family:STIX;-inkscape-font-specification:'STIX, Normal';letter-spacing:0px;word-spacing:0px;fill:#ffffff;stroke-width:0.264583"
       x="2.4654059"
       y="84.872742"
       id="text12309"><tspan
         sodipodi:role="line"
         id="tspan12307"
         style="fill:#ffffff;stroke-width:0.264583"
         x="2.4654059"
         y="84.872742">L</tspan></text>
    <text
       xml:space="preserve"
       style="font-size:4.23333px;line-height:1.25;font-family:STIX;-inkscape-font-specification:'STIX, Normal';letter-spacing:0px;word-spacing:0px;fill:#ffffff;stroke-width:0.264583"
       x="-125.99348"
       y="4.3049092"
       id="text8389"
       transform="rotate(-90)"><tspan
         sodipodi:role="line"
         id="tspan8387"
         style="fill:#ffffff;stroke-width:0.264583"
         x="-125.99348"
         y="4.3049092">LATERAL</tspan></text>
    <image
       width="80"
       height="66.175224"
       preserveAspectRatio="none"
       xlink:href="l-fore-carpus-flexed-dp-0020.png"
       id="image2745"
       x="1.4210855e-14"
       y="155"
       style="fill:#ffd5d5;stroke-width:5.47357" />
    <text
       xml:space="preserve"
       style="font-size:4.23333px;line-height:1.25;font-family:STIX;-inkscape-font-specification:'STIX, Normal';letter-spacing:0px;word-spacing:0px;stroke-width:0.264583"
       x="0.98635775"
       y="153.94167"
       id="text2749"><tspan
         sodipodi:role="line"
         id="tspan2747"
         style="stroke-width:0.264583"
         x="0.98635775"
         y="153.94167">D</tspan></text>
    <rect
       style="fill:#01befe;fill-opacity:1;stroke:none;stroke-width:1;paint-order:markers stroke fill;stop-color:#000000"
       id="rect2751"
       width="5"
       height="5"
       x="90"
       y="155" />
    <rect
       style="fill:#ffdd00;fill-opacity:1;stroke:none;stroke-width:1;paint-order:markers stroke fill;stop-color:#000000"
       id="rect2753"
       width="5"
       height="5"
       x="90"
       y="165" />
    <rect
       style="fill:#ff7d00;fill-opacity:1;stroke:none;stroke-width:1;paint-order:markers stroke fill;stop-color:#000000"
       id="rect2755"
       width="5"
       height="5"
       x="90"
       y="175" />
    <text
       xml:space="preserve"
       style="font-size:4.23333px;line-height:1.25;font-family:STIX;-inkscape-font-specification:'STIX, Normal';letter-spacing:0px;word-spacing:0px;stroke-width:0.264583"
       x="101.20883"
       y="158.90123"
       id="text2761"><tspan
         sodipodi:role="line"
         id="tspan2759"
         style="stroke-width:0.264583"
         x="101.20883"
         y="158.90123">2nd carpal bone</tspan></text>
    <text
       xml:space="preserve"
       style="font-size:4.23333px;line-height:1.25;font-family:STIX;-inkscape-font-specification:'STIX, Normal';letter-spacing:0px;word-spacing:0px;stroke-width:0.264583"
       x="101.20883"
       y="168.9012"
       id="text2765"><tspan
         sodipodi:role="line"
         id="tspan2763"
         style="stroke-width:0.264583"
         x="101.20883"
         y="168.9012">3rd carpal bone</tspan></text>
    <text
       xml:space="preserve"
       style="font-size:4.23333px;line-height:1.25;font-family:STIX;-inkscape-font-specification:'STIX, Normal';letter-spacing:0px;word-spacing:0px;stroke-width:0.264583"
       x="101.20883"
       y="178.9012"
       id="text2769"><tspan
         sodipodi:role="line"
         id="tspan2767"
         style="stroke-width:0.264583"
         x="101.20883"
         y="178.9012">4th carpal bone</tspan></text>
    <text
       xml:space="preserve"
       style="font-size:4.23333px;line-height:1.25;font-family:STIX;-inkscape-font-specification:'STIX, Normal';letter-spacing:0px;word-spacing:0px;fill:#ffffff;stroke-width:0.264583"
       x="2.4654059"
       y="159.87274"
       id="text2783"><tspan
         sodipodi:role="line"
         id="tspan2781"
         style="fill:#ffffff;stroke-width:0.264583"
         x="2.4654059"
         y="159.87274">L</tspan></text>
    <text
       xml:space="preserve"
       style="font-size:4.23333px;line-height:1.25;font-family:STIX;-inkscape-font-specification:'STIX, Normal';letter-spacing:0px;word-spacing:0px;fill:#ffffff;stroke-width:0.264583"
       x="-200.99347"
       y="4.3049092"
       id="text2787"
       transform="rotate(-90)"><tspan
         sodipodi:role="line"
         id="tspan2785"
         style="fill:#ffffff;stroke-width:0.264583"
         x="-200.99347"
         y="4.3049092">LATERAL</tspan></text>
    <path
       style="opacity:1;vector-effect:none;fill:#01befe;fill-opacity:1;stroke:#01befe;stroke-width:1;stroke-linecap:butt;stroke-linejoin:miter;stroke-miterlimit:4;stroke-dasharray:none;stroke-dashoffset:0;stroke-opacity:1"
       d="m 51.660382,156.56823 c 6.0359,32.32729 -13.990302,2.11111 -10.878077,0.03 2.72088,-1.81943 7.408733,1.6056 10.878077,-0.03 z"
       id="path3062" />
    <path
       style="opacity:1;vector-effect:none;fill:#ffdd00;fill-opacity:1;stroke:#ffdd00;stroke-width:1;stroke-linecap:butt;stroke-linejoin:miter;stroke-miterlimit:4;stroke-dasharray:none;stroke-dashoffset:0;stroke-opacity:1"
       d="m 39.580002,165.09537 c 12.052355,2.30896 8.530177,28.64017 8.758658,6.97651 0.0024,-0.22466 7.493594,6.30603 4.972851,11.36953 -2.886652,5.7985 -13.911516,14.15038 -20.575952,9.12224 -4.635315,-3.49722 0.282191,-16.51557 -3.899985,-21.39889 -1.119685,-1.3074 -2.649257,-3.01434 -1.727949,-5.05704 1.249096,-2.76946 10.031376,-1.00105 12.472377,-1.01235 z"
       id="path8647" />
    <path
       style="opacity:1;vector-effect:none;fill:#ff7d00;fill-opacity:1;stroke:#ff7d00;stroke-width:1;stroke-linecap:butt;stroke-linejoin:miter;stroke-miterlimit:4;stroke-dasharray:none;stroke-dashoffset:0;stroke-opacity:1"
       d="m 24.853505,168.83382 c 0.104037,3.83581 5.430038,4.19473 6.642394,7.10437 1.278681,3.06884 0.404098,7.72961 0.404098,11.05172 0,14.49114 -23.256068,-14.58962 -7.046492,-18.15609 z"
       id="path10439" />
    <rect
       style="fill:#ff006d;fill-opacity:1;stroke:none;stroke-width:1;paint-order:markers stroke fill;stop-color:#000000"
       id="rect1251"
       width="5"
       height="5"
       x="90"
       y="185" />
    <text
       xml:space="preserve"
       style="font-size:4.23333px;line-height:1.25;font-family:STIX;-inkscape-font-specification:'STIX, Normal';letter-spacing:0px;word-spacing:0px;stroke-width:0.264583"
       x="101.20883"
       y="188.9012"
       id="text1255"><tspan
         sodipodi:role="line"
         id="tspan1253"
         style="stroke-width:0.264583"
         x="101.20883"
         y="188.9012">Accessory proximal carpal bone</tspan></text>
    <path
       style="opacity:1;vector-effect:none;fill:#ff006d;fill-opacity:1;stroke:#ff006d;stroke-width:1;stroke-linecap:butt;stroke-linejoin:miter;stroke-miterlimit:4;stroke-dasharray:none;stroke-dashoffset:0;stroke-opacity:1"
       d="m 2.8499773,154.68103 c 1.950788,2.69622 6.5006497,17.05211 9.4555257,17.64698 4.251417,0.85588 10.771554,-18.77524 3.664974,-19.14006 -1.666987,-0.0856 -4.466166,1.19413 -6.4591428,1.19413 -2.2392381,0 -4.6822003,-0.17675 -6.6613569,0.29895 z"
       id="path2650" />
  </g>
</svg>
