<?xml version="1.0" encoding="UTF-8" standalone="no"?>
<svg
   xmlns:dc="http://purl.org/dc/elements/1.1/"
   xmlns:cc="http://creativecommons.org/ns#"
   xmlns:rdf="http://www.w3.org/1999/02/22-rdf-syntax-ns#"
   xmlns:svg="http://www.w3.org/2000/svg"
   xmlns="http://www.w3.org/2000/svg"
   xmlns:xlink="http://www.w3.org/1999/xlink"
   xmlns:sodipodi="http://sodipodi.sourceforge.net/DTD/sodipodi-0.dtd"
   xmlns:inkscape="http://www.inkscape.org/namespaces/inkscape"
   width="170mm"
   height="40.25mm"
   viewBox="0 0 170 40.250001"
   version="1.1"
   id="svg8"
   inkscape:version="1.0.1 (3bc2e813f5, 2020-09-07)"
   sodipodi:docname="ai-for-radiograph-detection.svg">
  <defs
     id="defs2">
    <linearGradient
       inkscape:collect="always"
       id="linearGradient2429">
      <stop
         style="stop-color:#ff0000;stop-opacity:1;"
         offset="0"
         id="stop2425" />
      <stop
         style="stop-color:#ff0000;stop-opacity:0;"
         offset="1"
         id="stop2427" />
    </linearGradient>
    <marker
       style="overflow:visible"
       id="marker1678"
       refX="0"
       refY="0"
       orient="auto"
       inkscape:stockid="TriangleOutS"
       inkscape:isstock="true">
      <path
         transform="scale(0.2)"
         style="fill:#000000;fill-opacity:1;fill-rule:evenodd;stroke:#000000;stroke-width:1pt;stroke-opacity:1"
         d="M 5.77,0 -2.88,5 V -5 Z"
         id="path1676" />
    </marker>
    <marker
       style="overflow:visible"
       id="Arrow1Lstart"
       refX="0"
       refY="0"
       orient="auto"
       inkscape:stockid="Arrow1Lstart"
       inkscape:isstock="true">
      <path
         transform="matrix(0.8,0,0,0.8,10,0)"
         style="fill:#000000;fill-opacity:0;fill-rule:evenodd;stroke:#000000;stroke-width:1pt;stroke-opacity:1"
         d="M 0,0 5,-5 -12.5,0 5,5 Z"
         id="path1279" />
    </marker>
    <marker
       style="overflow:visible"
       id="TriangleOutS"
       refX="0"
       refY="0"
       orient="auto"
       inkscape:stockid="TriangleOutS"
       inkscape:isstock="true">
      <path
         transform="scale(0.2)"
         style="fill:#000000;fill-opacity:0;fill-rule:evenodd;stroke:#000000;stroke-width:1pt;stroke-opacity:1"
         d="M 5.77,0 -2.88,5 V -5 Z"
         id="path1427" />
    </marker>
    <marker
       style="overflow:visible"
       id="Arrow1Send"
       refX="0"
       refY="0"
       orient="auto"
       inkscape:stockid="Arrow1Send"
       inkscape:isstock="true">
      <path
         transform="matrix(-0.2,0,0,-0.2,-1.2,0)"
         style="fill:#000000;fill-opacity:0;fill-rule:evenodd;stroke:#000000;stroke-width:1pt;stroke-opacity:1"
         d="M 0,0 5,-5 -12.5,0 5,5 Z"
         id="path1294" />
    </marker>
    <marker
       style="overflow:visible"
       id="marker1609-1"
       refX="0"
       refY="0"
       orient="auto"
       inkscape:stockid="TriangleOutS"
       inkscape:isstock="true"
       inkscape:collect="always">
      <path
         transform="scale(0.2)"
         style="fill:#000000;fill-opacity:1;fill-rule:evenodd;stroke:#000000;stroke-width:1pt;stroke-opacity:1"
         d="M 5.77,0 -2.88,5 V -5 Z"
         id="path1607-5" />
    </marker>
    <marker
       style="overflow:visible"
       id="marker1678-4"
       refX="0"
       refY="0"
       orient="auto"
       inkscape:stockid="TriangleOutS"
       inkscape:isstock="true">
      <path
         transform="scale(0.2)"
         style="fill:#000000;fill-opacity:1;fill-rule:evenodd;stroke:#000000;stroke-width:1pt;stroke-opacity:1"
         d="M 5.77,0 -2.88,5 V -5 Z"
         id="path1676-9" />
    </marker>
    <radialGradient
       inkscape:collect="always"
       xlink:href="#linearGradient2429"
       id="radialGradient2431"
       cx="-131.42648"
       cy="-100.5"
       fx="-131.42648"
       fy="-100.5"
       r="4"
       gradientUnits="userSpaceOnUse"
       gradientTransform="matrix(0.76287088,2.0595207e-8,-2.0366661e-8,0.75011047,-31.165049,-25.113895)" />
  </defs>
  <sodipodi:namedview
     id="base"
     pagecolor="#ffffff"
     bordercolor="#666666"
     borderopacity="1.0"
     inkscape:pageopacity="0.0"
     inkscape:pageshadow="2"
     inkscape:zoom="7.5604688"
     inkscape:cx="505.12988"
     inkscape:cy="106.85551"
     inkscape:document-units="mm"
     inkscape:current-layer="layer1"
     inkscape:document-rotation="0"
     showgrid="true"
     inkscape:window-width="2560"
     inkscape:window-height="1376"
     inkscape:window-x="0"
     inkscape:window-y="27"
     inkscape:window-maximized="1"
     fit-margin-top="0"
     fit-margin-left="0"
     fit-margin-right="0"
     fit-margin-bottom="0"
     inkscape:snap-bbox="false"
     inkscape:snap-global="true">
    <inkscape:grid
       type="xygrid"
       id="grid1127"
       originx="0.12500029"
       originy="0.125"
       units="mm"
       spacingx="1"
       spacingy="1" />
  </sodipodi:namedview>
  <metadata
     id="metadata5">
    <rdf:RDF>
      <cc:Work
         rdf:about="">
        <dc:format>image/svg+xml</dc:format>
        <dc:type
           rdf:resource="http://purl.org/dc/dcmitype/StillImage" />
        <dc:title></dc:title>
      </cc:Work>
    </rdf:RDF>
  </metadata>
  <g
     inkscape:label="Layer 1"
     inkscape:groupmode="layer"
     id="layer1"
     transform="translate(272.5,129.625)">
    <path
       style="opacity:1;vector-effect:none;fill:none;fill-opacity:0;stroke:#000000;stroke-width:1;stroke-linecap:butt;stroke-linejoin:miter;stroke-miterlimit:4;stroke-dasharray:none;stroke-dashoffset:0;stroke-opacity:1;marker-end:url(#marker1609-1)"
       d="m -209.775,-109.5 h 3.4"
       id="path1277-5"
       sodipodi:nodetypes="cc" />
    <text
       xml:space="preserve"
       style="font-style:normal;font-weight:normal;font-size:4.23333px;line-height:1.25;font-family:sans-serif;letter-spacing:0px;word-spacing:0px;fill:#000000;fill-opacity:1;stroke:none;stroke-width:0.264583"
       x="-267.43597"
       y="-124.63278"
       id="text1598-9"><tspan
         sodipodi:role="line"
         id="tspan1596-3"
         x="-267.43597"
         y="-124.63278"
         style="font-style:normal;font-variant:normal;font-weight:normal;font-stretch:normal;font-size:4.23333px;font-family:STIX;-inkscape-font-specification:STIX;stroke-width:0.264583">Input</tspan></text>
    <text
       xml:space="preserve"
       style="font-style:normal;font-weight:normal;font-size:4.23333px;line-height:1.25;font-family:sans-serif;letter-spacing:0px;word-spacing:0px;fill:#000000;fill-opacity:1;stroke:none;stroke-width:0.264583"
       x="-262.54572"
       y="-114.58185"
       id="text1602-5"><tspan
         sodipodi:role="line"
         id="tspan1600-7"
         x="-262.54572"
         y="-114.58185"
         style="font-style:normal;font-variant:normal;font-weight:normal;font-stretch:normal;font-size:4.23333px;font-family:STIX;-inkscape-font-specification:STIX;stroke-width:0.264583">Image</tspan></text>
    <rect
       style="fill:none;fill-opacity:0.4;stroke:#000000;stroke-width:0.25;stroke-linecap:butt;stroke-linejoin:round;stroke-miterlimit:4;stroke-dasharray:none;stroke-opacity:1"
       id="rect1608-1"
       width="25"
       height="25"
       x="-267.375"
       y="-119.5" />
    <rect
       style="fill:none;fill-opacity:0.4;stroke:#000000;stroke-width:0.25;stroke-linecap:butt;stroke-linejoin:round;stroke-miterlimit:4;stroke-dasharray:none;stroke-opacity:1"
       id="rect1610-9"
       width="60"
       height="40"
       x="-272.375"
       y="-129.5" />
    <text
       xml:space="preserve"
       style="font-style:normal;font-weight:normal;font-size:4.23333px;line-height:1.25;font-family:sans-serif;letter-spacing:0px;word-spacing:0px;fill:#000000;fill-opacity:1;stroke:none;stroke-width:0.264583"
       x="-137.16753"
       y="-124.61786"
       id="text1622-8"><tspan
         sodipodi:role="line"
         id="tspan1620-2"
         x="-137.16753"
         y="-124.61786"
         style="font-style:normal;font-variant:normal;font-weight:normal;font-stretch:normal;font-size:4.23333px;font-family:STIX;-inkscape-font-specification:STIX;stroke-width:0.264583">Output</tspan></text>
    <path
       style="opacity:1;vector-effect:none;fill:none;fill-opacity:0;stroke:#000000;stroke-width:1;stroke-linecap:butt;stroke-linejoin:miter;stroke-miterlimit:4;stroke-dasharray:none;stroke-dashoffset:0;stroke-opacity:1;marker-end:url(#marker1678-4)"
       d="m -149.86075,-109.5 h 3.4"
       id="path1674-3"
       sodipodi:nodetypes="cc" />
    <rect
       style="fill:#000000;fill-opacity:1;stroke:#000000;stroke-width:0.25;stroke-linecap:butt;stroke-linejoin:round;stroke-miterlimit:4;stroke-dasharray:none;stroke-opacity:1"
       id="rect1808-4"
       width="50"
       height="40"
       x="-202.375"
       y="-129.5" />
    <rect
       style="fill:none;fill-opacity:0.4;stroke:#000000;stroke-width:0.25;stroke-linecap:butt;stroke-linejoin:round;stroke-miterlimit:4;stroke-dasharray:none;stroke-opacity:1"
       id="rect1810-9"
       width="39.750042"
       height="39.999985"
       x="-142.375"
       y="-129.5" />
    <text
       xml:space="preserve"
       style="font-size:4.23333px;line-height:1.25;font-family:STIX;-inkscape-font-specification:'STIX, Normal';letter-spacing:0px;word-spacing:0px;fill:#ffffff;stroke-width:0.264583"
       x="-177.35596"
       y="-118.65246"
       id="text8224"><tspan
         sodipodi:role="line"
         id="tspan8222"
         x="-177.35596"
         y="-118.65246"
         style="font-style:normal;font-variant:normal;font-weight:bold;font-stretch:normal;font-size:4.23333px;font-family:STIX;-inkscape-font-specification:'STIX Bold';text-align:center;text-anchor:middle;fill:#ffffff;stroke-width:0.264583">AI</tspan><tspan
         sodipodi:role="line"
         x="-177.35596"
         y="-113.36079"
         style="font-style:normal;font-variant:normal;font-weight:bold;font-stretch:normal;font-size:4.23333px;font-family:STIX;-inkscape-font-specification:'STIX Bold';text-align:center;text-anchor:middle;fill:#ffffff;stroke-width:0.264583"
         id="tspan8230">for</tspan><tspan
         sodipodi:role="line"
         x="-177.35596"
         y="-108.06913"
         style="font-style:normal;font-variant:normal;font-weight:bold;font-stretch:normal;font-size:4.23333px;font-family:STIX;-inkscape-font-specification:'STIX Bold';text-align:center;text-anchor:middle;fill:#ffffff;stroke-width:0.264583"
         id="tspan8226">Radiograph</tspan><tspan
         sodipodi:role="line"
         x="-177.35596"
         y="-102.77747"
         style="font-style:normal;font-variant:normal;font-weight:bold;font-stretch:normal;font-size:4.23333px;font-family:STIX;-inkscape-font-specification:'STIX Bold';text-align:center;text-anchor:middle;fill:#ffffff;stroke-width:0.264583"
         id="tspan8228">Abnormality</tspan><tspan
         sodipodi:role="line"
         x="-177.35596"
         y="-97.485809"
         style="font-style:normal;font-variant:normal;font-weight:bold;font-stretch:normal;font-size:4.23333px;font-family:STIX;-inkscape-font-specification:'STIX Bold';text-align:center;text-anchor:middle;fill:#ffffff;stroke-width:0.264583"
         id="tspan1055">Detection</tspan></text>
    <rect
       style="fill:none;fill-opacity:0.4;stroke:#000000;stroke-width:0.25;stroke-linecap:butt;stroke-linejoin:round;stroke-miterlimit:4;stroke-dasharray:none;stroke-opacity:1"
       id="rect8232"
       width="5.0000005"
       height="5"
       x="-137.375"
       y="-119.5" />
    <text
       xml:space="preserve"
       style="font-size:4.13195px;line-height:1.25;font-family:STIX;-inkscape-font-specification:'STIX, Normal';letter-spacing:0px;word-spacing:0px;stroke-width:0.264583"
       x="-132.67815"
       y="-118.50285"
       id="text8238"
       transform="scale(1.0245344,0.97605312)"><tspan
         sodipodi:role="line"
         id="tspan8236"
         x="-132.67815"
         y="-118.50285"
         style="stroke-width:0.264583">0</tspan></text>
    <text
       xml:space="preserve"
       style="font-size:4.23333px;line-height:1.25;font-family:STIX;-inkscape-font-specification:'STIX, Normal';letter-spacing:0px;word-spacing:0px;stroke-width:0.264583"
       x="-131.47241"
       y="-116.02845"
       id="text8242"><tspan
         sodipodi:role="line"
         id="tspan8240"
         x="-131.47241"
         y="-116.02845"
         style="stroke-width:0.264583">Osteophyte</tspan></text>
    <text
       xml:space="preserve"
       style="font-size:4.23333px;line-height:1.25;font-family:STIX;-inkscape-font-specification:'STIX, Normal';letter-spacing:0px;word-spacing:0px;stroke-width:0.264583"
       x="-131.42584"
       y="-110.61993"
       id="text8246"><tspan
         sodipodi:role="line"
         id="tspan8244"
         x="-131.42584"
         y="-110.61993"
         style="stroke-width:0.264583">Fracture</tspan></text>
    <rect
       style="fill:none;fill-opacity:0.4;stroke:#000000;stroke-width:0.25;stroke-linecap:butt;stroke-linejoin:round;stroke-miterlimit:4;stroke-dasharray:none;stroke-opacity:1"
       id="rect8252"
       width="25"
       height="5"
       x="-132.375"
       y="-119.5" />
    <rect
       style="fill:none;fill-opacity:0.4;stroke:#000000;stroke-width:0.25;stroke-linecap:butt;stroke-linejoin:round;stroke-miterlimit:4;stroke-dasharray:none;stroke-opacity:1"
       id="rect8254"
       width="5.0000005"
       height="5"
       x="-137.375"
       y="-114.5" />
    <rect
       style="fill:none;fill-opacity:0.4;stroke:#000000;stroke-width:0.25;stroke-linecap:butt;stroke-linejoin:round;stroke-miterlimit:4;stroke-dasharray:none;stroke-opacity:1"
       id="rect8256"
       width="25"
       height="5"
       x="-132.375"
       y="-114.5" />
    <text
       xml:space="preserve"
       style="font-size:4.13195px;line-height:1.25;font-family:STIX;-inkscape-font-specification:'STIX, Normal';letter-spacing:0px;word-spacing:0px;stroke-width:0.264583"
       x="-132.67815"
       y="-113.38018"
       id="text8272"
       transform="scale(1.0245344,0.97605312)"><tspan
         sodipodi:role="line"
         id="tspan8270"
         x="-132.67815"
         y="-113.38018"
         style="stroke-width:0.264583">1</tspan></text>
    <image
       sodipodi:absref="/home/raniere/Documents/qualifying-report/img/commons.wikimedia.org/x-ray-normal-hip.jpg"
       xlink:href="commons.wikimedia.org/x-ray-normal-hip.jpg"
       style="stroke-width:22.2779"
       y="-109.5"
       x="-262.375"
       id="image2395"
       preserveAspectRatio="none"
       height="12.719714"
       width="15" />
    <image
       sodipodi:absref="/home/raniere/Documents/qualifying-report/img/commons.wikimedia.org/x-ray-normal-hip.jpg"
       xlink:href="commons.wikimedia.org/x-ray-normal-hip.jpg"
       style="stroke-width:22.2779"
       y="-104.5"
       x="-137.375"
       id="image2407"
       preserveAspectRatio="none"
       height="12.719714"
       width="15" />
    <circle
       style="opacity:1;fill:url(#radialGradient2431);fill-opacity:1;stroke-width:23.812;stroke-linecap:square;paint-order:stroke fill markers"
       id="path2409"
       cx="-131.42648"
       cy="-100.5"
       r="4" />
  </g>
</svg>
