<?xml version="1.0" encoding="UTF-8" standalone="no"?>
<svg
   xmlns:dc="http://purl.org/dc/elements/1.1/"
   xmlns:cc="http://creativecommons.org/ns#"
   xmlns:rdf="http://www.w3.org/1999/02/22-rdf-syntax-ns#"
   xmlns:svg="http://www.w3.org/2000/svg"
   xmlns="http://www.w3.org/2000/svg"
   xmlns:sodipodi="http://sodipodi.sourceforge.net/DTD/sodipodi-0.dtd"
   xmlns:inkscape="http://www.inkscape.org/namespaces/inkscape"
   width="170mm"
   height="76.61834mm"
   viewBox="-40 -187.225 642.51968 289.58112"
   version="1.1"
   id="svg1977"
   sodipodi:docname="u-net.svg"
   inkscape:version="1.0.1 (3bc2e813f5, 2020-09-07)">
  <line
     x1="80.5"
     y1="-75.732735"
     x2="80.5"
     y2="-186.72501"
     stroke-width="1"
     stroke-dasharray="none"
     stroke="#000000"
     id="line1427" />
  <line
     x1="81.444679"
     y1="-75.732735"
     x2="81.444679"
     y2="-186.72501"
     stroke-width="1"
     stroke-dasharray="1"
     stroke="#000000"
     id="line1429" />
  <line
     x1="147.74579"
     y1="-36.885433"
     x2="147.74579"
     y2="-147.87772"
     stroke-width="1"
     stroke-dasharray="none"
     stroke="#000000"
     id="line1431" />
  <line
     x1="148.69046"
     y1="-36.885433"
     x2="148.69046"
     y2="-147.87772"
     stroke-width="1"
     stroke-dasharray="none"
     stroke="#000000"
     id="line1433" />
  <line
     x1="80.5"
     y1="-75.732735"
     x2="147.74579"
     y2="-36.885433"
     stroke-width="1"
     stroke-dasharray="none"
     stroke="#000000"
     id="line1435" />
  <line
     x1="80.5"
     y1="-186.72501"
     x2="147.74579"
     y2="-147.87772"
     stroke-width="1"
     stroke-dasharray="none"
     stroke="#000000"
     id="line1437" />
  <line
     x1="81.444679"
     y1="-75.732735"
     x2="148.69046"
     y2="-36.885433"
     stroke-width="1"
     stroke-dasharray="1"
     stroke="#000000"
     id="line1439" />
  <line
     x1="81.444679"
     y1="-186.72501"
     x2="148.69046"
     y2="-147.87772"
     stroke-width="1"
     stroke-dasharray="none"
     stroke="#000000"
     id="line1441" />
  <line
     x1="80.5"
     y1="-75.732735"
     x2="81.444679"
     y2="-75.732735"
     stroke-width="1"
     stroke-dasharray="1"
     stroke="#000000"
     id="line1443" />
  <line
     x1="147.74579"
     y1="-36.885433"
     x2="148.69046"
     y2="-36.885433"
     stroke-width="1"
     stroke-dasharray="none"
     stroke="#000000"
     id="line1445" />
  <line
     x1="80.5"
     y1="-186.72501"
     x2="81.444679"
     y2="-186.72501"
     stroke-width="1"
     stroke-dasharray="none"
     stroke="#000000"
     id="line1447" />
  <line
     x1="147.74579"
     y1="-147.87772"
     x2="148.69046"
     y2="-147.87772"
     stroke-width="1"
     stroke-dasharray="none"
     stroke="#000000"
     id="line1449" />
  <line
     x1="191.44467"
     y1="31.476728"
     x2="191.44467"
     y2="18.275"
     stroke-width="1"
     stroke-dasharray="none"
     stroke="#000000"
     id="line1479" />
  <line
     x1="199.00211"
     y1="31.476728"
     x2="199.00211"
     y2="18.275"
     stroke-width="1"
     stroke-dasharray="1"
     stroke="#000000"
     id="line1481" />
  <line
     x1="199.4431"
     y1="36.097328"
     x2="199.4431"
     y2="22.895605"
     stroke-width="1"
     stroke-dasharray="none"
     stroke="#000000"
     id="line1483" />
  <line
     x1="207.00049"
     y1="36.097328"
     x2="207.00049"
     y2="22.895605"
     stroke-width="1"
     stroke-dasharray="none"
     stroke="#000000"
     id="line1485" />
  <line
     x1="191.44467"
     y1="31.476728"
     x2="199.4431"
     y2="36.097328"
     stroke-width="1"
     stroke-dasharray="none"
     stroke="#000000"
     id="line1487" />
  <line
     x1="191.44467"
     y1="18.275"
     x2="199.4431"
     y2="22.895605"
     stroke-width="1"
     stroke-dasharray="none"
     stroke="#000000"
     id="line1489" />
  <line
     x1="199.00211"
     y1="31.476728"
     x2="207.00049"
     y2="36.097328"
     stroke-width="1"
     stroke-dasharray="1"
     stroke="#000000"
     id="line1491" />
  <line
     x1="199.00211"
     y1="18.275"
     x2="207.00049"
     y2="22.895605"
     stroke-width="1"
     stroke-dasharray="none"
     stroke="#000000"
     id="line1493" />
  <line
     x1="191.44467"
     y1="31.476728"
     x2="199.00211"
     y2="31.476728"
     stroke-width="1"
     stroke-dasharray="1"
     stroke="#000000"
     id="line1495" />
  <line
     x1="199.4431"
     y1="36.097328"
     x2="207.00049"
     y2="36.097328"
     stroke-width="1"
     stroke-dasharray="none"
     stroke="#000000"
     id="line1497" />
  <line
     x1="191.44467"
     y1="18.275"
     x2="199.00211"
     y2="18.275"
     stroke-width="1"
     stroke-dasharray="none"
     stroke="#000000"
     id="line1499" />
  <line
     x1="199.4431"
     y1="22.895605"
     x2="207.00049"
     y2="22.895605"
     stroke-width="1"
     stroke-dasharray="none"
     stroke="#000000"
     id="line1501" />
  <line
     x1="216.44467"
     y1="61.476723"
     x2="216.44467"
     y2="48.275009"
     stroke-width="1"
     stroke-dasharray="none"
     stroke="#000000"
     id="line1505" />
  <line
     x1="230.05769"
     y1="61.476723"
     x2="230.05769"
     y2="48.275009"
     stroke-width="1"
     stroke-dasharray="1"
     stroke="#000000"
     id="line1507" />
  <line
     x1="224.44305"
     y1="66.097328"
     x2="224.44305"
     y2="52.895607"
     stroke-width="1"
     stroke-dasharray="none"
     stroke="#000000"
     id="line1509" />
  <line
     x1="238.05609"
     y1="66.097328"
     x2="238.05609"
     y2="52.895607"
     stroke-width="1"
     stroke-dasharray="none"
     stroke="#000000"
     id="line1511" />
  <line
     x1="216.44467"
     y1="61.476723"
     x2="224.44305"
     y2="66.097328"
     stroke-width="1"
     stroke-dasharray="none"
     stroke="#000000"
     id="line1513" />
  <line
     x1="216.44467"
     y1="48.275009"
     x2="224.44305"
     y2="52.895607"
     stroke-width="1"
     stroke-dasharray="none"
     stroke="#000000"
     id="line1515" />
  <line
     x1="230.05769"
     y1="61.476723"
     x2="238.05609"
     y2="66.097328"
     stroke-width="1"
     stroke-dasharray="1"
     stroke="#000000"
     id="line1517" />
  <line
     x1="230.05769"
     y1="48.275009"
     x2="238.05609"
     y2="52.895607"
     stroke-width="1"
     stroke-dasharray="none"
     stroke="#000000"
     id="line1519" />
  <line
     x1="216.44467"
     y1="61.476723"
     x2="230.05769"
     y2="61.476723"
     stroke-width="1"
     stroke-dasharray="1"
     stroke="#000000"
     id="line1521" />
  <line
     x1="224.44305"
     y1="66.097328"
     x2="238.05609"
     y2="66.097328"
     stroke-width="1"
     stroke-dasharray="none"
     stroke="#000000"
     id="line1523" />
  <line
     x1="216.44467"
     y1="48.275009"
     x2="230.05769"
     y2="48.275009"
     stroke-width="1"
     stroke-dasharray="none"
     stroke="#000000"
     id="line1525" />
  <line
     x1="224.44305"
     y1="52.895607"
     x2="238.05609"
     y2="52.895607"
     stroke-width="1"
     stroke-dasharray="none"
     stroke="#000000"
     id="line1527" />
  <line
     x1="246.4447"
     y1="79.631386"
     x2="246.4447"
     y2="73.275002"
     stroke-width="1"
     stroke-dasharray="none"
     stroke="#000000"
     id="line1531" />
  <line
     x1="260.05771"
     y1="79.631386"
     x2="260.05771"
     y2="73.275002"
     stroke-width="1"
     stroke-dasharray="1"
     stroke="#000000"
     id="line1533" />
  <line
     x1="250.29578"
     y1="81.856117"
     x2="250.29578"
     y2="75.499733"
     stroke-width="1"
     stroke-dasharray="none"
     stroke="#000000"
     id="line1535" />
  <line
     x1="263.90878"
     y1="81.856117"
     x2="263.90878"
     y2="75.499733"
     stroke-width="1"
     stroke-dasharray="none"
     stroke="#000000"
     id="line1537" />
  <line
     x1="246.4447"
     y1="79.631386"
     x2="250.29578"
     y2="81.856117"
     stroke-width="1"
     stroke-dasharray="none"
     stroke="#000000"
     id="line1539" />
  <line
     x1="246.4447"
     y1="73.275002"
     x2="250.29578"
     y2="75.499733"
     stroke-width="1"
     stroke-dasharray="none"
     stroke="#000000"
     id="line1541" />
  <line
     x1="260.05771"
     y1="79.631386"
     x2="263.90878"
     y2="81.856117"
     stroke-width="1"
     stroke-dasharray="1"
     stroke="#000000"
     id="line1543" />
  <line
     x1="260.05771"
     y1="73.275002"
     x2="263.90878"
     y2="75.499733"
     stroke-width="1"
     stroke-dasharray="none"
     stroke="#000000"
     id="line1545" />
  <line
     x1="246.4447"
     y1="79.631386"
     x2="260.05771"
     y2="79.631386"
     stroke-width="1"
     stroke-dasharray="1"
     stroke="#000000"
     id="line1547" />
  <line
     x1="250.29578"
     y1="81.856117"
     x2="263.90878"
     y2="81.856117"
     stroke-width="1"
     stroke-dasharray="none"
     stroke="#000000"
     id="line1549" />
  <line
     x1="246.4447"
     y1="73.275002"
     x2="260.05771"
     y2="73.275002"
     stroke-width="1"
     stroke-dasharray="none"
     stroke="#000000"
     id="line1551" />
  <line
     x1="250.29578"
     y1="75.499733"
     x2="263.90878"
     y2="75.499733"
     stroke-width="1"
     stroke-dasharray="none"
     stroke="#000000"
     id="line1553" />
  <line
     x1="271.4447"
     y1="99.631386"
     x2="271.4447"
     y2="93.275002"
     stroke-width="1"
     stroke-dasharray="none"
     stroke="#000000"
     id="line1557" />
  <line
     x1="288.80707"
     y1="99.631386"
     x2="288.80707"
     y2="93.275002"
     stroke-width="1"
     stroke-dasharray="1"
     stroke="#000000"
     id="line1559" />
  <line
     x1="275.29575"
     y1="101.85612"
     x2="275.29575"
     y2="95.499733"
     stroke-width="1"
     stroke-dasharray="none"
     stroke="#000000"
     id="line1561" />
  <line
     x1="292.65814"
     y1="101.85612"
     x2="292.65814"
     y2="95.499733"
     stroke-width="1"
     stroke-dasharray="none"
     stroke="#000000"
     id="line1563" />
  <line
     x1="271.4447"
     y1="99.631386"
     x2="275.29575"
     y2="101.85612"
     stroke-width="1"
     stroke-dasharray="none"
     stroke="#000000"
     id="line1565" />
  <line
     x1="271.4447"
     y1="93.275002"
     x2="275.29575"
     y2="95.499733"
     stroke-width="1"
     stroke-dasharray="none"
     stroke="#000000"
     id="line1567" />
  <line
     x1="288.80707"
     y1="99.631386"
     x2="292.65814"
     y2="101.85612"
     stroke-width="1"
     stroke-dasharray="1"
     stroke="#000000"
     id="line1569" />
  <line
     x1="288.80707"
     y1="93.275002"
     x2="292.65814"
     y2="95.499733"
     stroke-width="1"
     stroke-dasharray="none"
     stroke="#000000"
     id="line1571" />
  <line
     x1="271.4447"
     y1="99.631386"
     x2="288.80707"
     y2="99.631386"
     stroke-width="1"
     stroke-dasharray="1"
     stroke="#000000"
     id="line1573" />
  <line
     x1="275.29575"
     y1="101.85612"
     x2="292.65814"
     y2="101.85612"
     stroke-width="1"
     stroke-dasharray="none"
     stroke="#000000"
     id="line1575" />
  <line
     x1="271.4447"
     y1="93.275002"
     x2="288.80707"
     y2="93.275002"
     stroke-width="1"
     stroke-dasharray="none"
     stroke="#000000"
     id="line1577" />
  <line
     x1="275.29575"
     y1="95.499733"
     x2="292.65814"
     y2="95.499733"
     stroke-width="1"
     stroke-dasharray="none"
     stroke="#000000"
     id="line1579" />
  <line
     x1="114.12289"
     y1="-110.05721"
     x2="114.12289"
     y2="-115.4357"
     stroke-width="1"
     stroke-dasharray="none"
     stroke="#0000ff"
     id="line1701" />
  <line
     x1="115.06757"
     y1="-110.05721"
     x2="115.06757"
     y2="-115.4357"
     stroke-width="1"
     stroke-dasharray="1"
     stroke="#0000ff"
     id="line1703" />
  <line
     x1="117.3815"
     y1="-108.17475"
     x2="117.3815"
     y2="-113.55323"
     stroke-width="1"
     stroke-dasharray="none"
     stroke="#0000ff"
     id="line1705" />
  <line
     x1="118.32617"
     y1="-108.17475"
     x2="118.32617"
     y2="-113.55323"
     stroke-width="1"
     stroke-dasharray="none"
     stroke="#0000ff"
     id="line1707" />
  <line
     x1="114.12289"
     y1="-110.05721"
     x2="117.3815"
     y2="-108.17475"
     stroke-width="1"
     stroke-dasharray="none"
     stroke="#0000ff"
     id="line1709" />
  <line
     x1="114.12289"
     y1="-115.4357"
     x2="117.3815"
     y2="-113.55323"
     stroke-width="1"
     stroke-dasharray="none"
     stroke="#0000ff"
     id="line1711" />
  <line
     x1="115.06757"
     y1="-110.05721"
     x2="118.32617"
     y2="-108.17475"
     stroke-width="1"
     stroke-dasharray="1"
     stroke="#0000ff"
     id="line1713" />
  <line
     x1="115.06757"
     y1="-115.4357"
     x2="118.32617"
     y2="-113.55323"
     stroke-width="1"
     stroke-dasharray="none"
     stroke="#0000ff"
     id="line1715" />
  <line
     x1="114.12289"
     y1="-110.05721"
     x2="115.06757"
     y2="-110.05721"
     stroke-width="1"
     stroke-dasharray="1"
     stroke="#0000ff"
     id="line1717" />
  <line
     x1="117.3815"
     y1="-108.17475"
     x2="118.32617"
     y2="-108.17475"
     stroke-width="1"
     stroke-dasharray="none"
     stroke="#0000ff"
     id="line1719" />
  <line
     x1="114.12289"
     y1="-115.4357"
     x2="115.06757"
     y2="-115.4357"
     stroke-width="1"
     stroke-dasharray="none"
     stroke="#0000ff"
     id="line1721" />
  <line
     x1="117.3815"
     y1="-113.55323"
     x2="118.32617"
     y2="-113.55323"
     stroke-width="1"
     stroke-dasharray="none"
     stroke="#0000ff"
     id="line1723" />
  <path
     id="line1725"
     style="stroke:#0000ff;stroke-width:1;stroke-dasharray:none"
     d="M 118.33429,-113.34642 164.7754,-9.154853"
     sodipodi:nodetypes="cc" />
  <path
     id="line1727"
     style="stroke:#0000ff;stroke-width:1;stroke-dasharray:none"
     d="m 118.32617,-108.17475 46.26901,99.849321"
     sodipodi:nodetypes="cc" />
  <line
     x1="195.44388"
     y1="27.980719"
     x2="195.44388"
     y2="25.535948"
     stroke-width="1"
     stroke-dasharray="none"
     stroke="#0000ff"
     id="line1765" />
  <line
     x1="203.00128"
     y1="27.980719"
     x2="203.00128"
     y2="25.535948"
     stroke-width="1"
     stroke-dasharray="1"
     stroke="#0000ff"
     id="line1767" />
  <line
     x1="196.92508"
     y1="28.836378"
     x2="196.92508"
     y2="26.391615"
     stroke-width="1"
     stroke-dasharray="none"
     stroke="#0000ff"
     id="line1769" />
  <line
     x1="204.48247"
     y1="28.836378"
     x2="204.48247"
     y2="26.391615"
     stroke-width="1"
     stroke-dasharray="none"
     stroke="#0000ff"
     id="line1771" />
  <line
     x1="195.44388"
     y1="27.980719"
     x2="196.92508"
     y2="28.836378"
     stroke-width="1"
     stroke-dasharray="none"
     stroke="#0000ff"
     id="line1773" />
  <line
     x1="195.44388"
     y1="25.535948"
     x2="196.92508"
     y2="26.391615"
     stroke-width="1"
     stroke-dasharray="none"
     stroke="#0000ff"
     id="line1775" />
  <line
     x1="203.00128"
     y1="27.980719"
     x2="204.48247"
     y2="28.836378"
     stroke-width="1"
     stroke-dasharray="1"
     stroke="#0000ff"
     id="line1777" />
  <line
     x1="203.00128"
     y1="25.535948"
     x2="204.48247"
     y2="26.391615"
     stroke-width="1"
     stroke-dasharray="none"
     stroke="#0000ff"
     id="line1779" />
  <line
     x1="195.44388"
     y1="27.980719"
     x2="203.00128"
     y2="27.980719"
     stroke-width="1"
     stroke-dasharray="1"
     stroke="#0000ff"
     id="line1781" />
  <line
     x1="196.92508"
     y1="28.836378"
     x2="204.48247"
     y2="28.836378"
     stroke-width="1"
     stroke-dasharray="none"
     stroke="#0000ff"
     id="line1783" />
  <line
     x1="195.44388"
     y1="25.535948"
     x2="203.00128"
     y2="25.535948"
     stroke-width="1"
     stroke-dasharray="none"
     stroke="#0000ff"
     id="line1785" />
  <line
     x1="196.92508"
     y1="26.391615"
     x2="204.48247"
     y2="26.391615"
     stroke-width="1"
     stroke-dasharray="none"
     stroke="#0000ff"
     id="line1787" />
  <path
     id="line1789"
     style="stroke:#0000ff;stroke-width:1;stroke-dasharray:none"
     d="m 204.45187,25.930657 16.03578,30.637887"
     sodipodi:nodetypes="cc" />
  <path
     id="line1791"
     style="stroke:#0000ff;stroke-width:1;stroke-dasharray:none"
     d="m 203.96002,28.867067 16.53203,27.746697"
     sodipodi:nodetypes="cc" />
  <line
     x1="220.44386"
     y1="57.662903"
     x2="220.44386"
     y2="56.196037"
     stroke-width="1"
     stroke-dasharray="none"
     stroke="#0000ff"
     id="line1797" />
  <line
     x1="234.05688"
     y1="57.662903"
     x2="234.05688"
     y2="56.196037"
     stroke-width="1"
     stroke-dasharray="1"
     stroke="#0000ff"
     id="line1799" />
  <line
     x1="221.33258"
     y1="58.176292"
     x2="221.33258"
     y2="56.709442"
     stroke-width="1"
     stroke-dasharray="none"
     stroke="#0000ff"
     id="line1801" />
  <line
     x1="234.9456"
     y1="58.176292"
     x2="234.9456"
     y2="56.709442"
     stroke-width="1"
     stroke-dasharray="none"
     stroke="#0000ff"
     id="line1803" />
  <line
     x1="220.44386"
     y1="57.662903"
     x2="221.33258"
     y2="58.176292"
     stroke-width="1"
     stroke-dasharray="none"
     stroke="#0000ff"
     id="line1805" />
  <line
     x1="220.44386"
     y1="56.196037"
     x2="221.33258"
     y2="56.709442"
     stroke-width="1"
     stroke-dasharray="none"
     stroke="#0000ff"
     id="line1807" />
  <line
     x1="234.05688"
     y1="57.662903"
     x2="234.9456"
     y2="58.176292"
     stroke-width="1"
     stroke-dasharray="1"
     stroke="#0000ff"
     id="line1809" />
  <line
     x1="234.05688"
     y1="56.196037"
     x2="234.9456"
     y2="56.709442"
     stroke-width="1"
     stroke-dasharray="none"
     stroke="#0000ff"
     id="line1811" />
  <line
     x1="220.44386"
     y1="57.662903"
     x2="234.05688"
     y2="57.662903"
     stroke-width="1"
     stroke-dasharray="1"
     stroke="#0000ff"
     id="line1813" />
  <line
     x1="221.33258"
     y1="58.176292"
     x2="234.9456"
     y2="58.176292"
     stroke-width="1"
     stroke-dasharray="none"
     stroke="#0000ff"
     id="line1815" />
  <line
     x1="220.44386"
     y1="56.196037"
     x2="234.05688"
     y2="56.196037"
     stroke-width="1"
     stroke-dasharray="none"
     stroke="#0000ff"
     id="line1817" />
  <line
     x1="221.33258"
     y1="56.709442"
     x2="234.9456"
     y2="56.709442"
     stroke-width="1"
     stroke-dasharray="none"
     stroke="#0000ff"
     id="line1819" />
  <path
     id="line1821"
     style="stroke:#0000ff;stroke-width:1;stroke-dasharray:none"
     d="m 234.80235,56.187374 13.26951,20.90337"
     sodipodi:nodetypes="cc" />
  <path
     id="line1823"
     style="stroke:#0000ff;stroke-width:1;stroke-dasharray:none"
     d="m 234.28229,58.233004 13.77977,19.63436"
     sodipodi:nodetypes="cc" />
  <line
     x1="248.37024"
     y1="78.04229"
     x2="248.37024"
     y2="76.575432"
     stroke-width="1"
     stroke-dasharray="none"
     stroke="#0000ff"
     id="line1829" />
  <line
     x1="261.98328"
     y1="78.04229"
     x2="261.98328"
     y2="76.575432"
     stroke-width="1"
     stroke-dasharray="1"
     stroke="#0000ff"
     id="line1831" />
  <line
     x1="249.25891"
     y1="78.555687"
     x2="249.25891"
     y2="77.088829"
     stroke-width="1"
     stroke-dasharray="none"
     stroke="#0000ff"
     id="line1833" />
  <line
     x1="262.87195"
     y1="78.555687"
     x2="262.87195"
     y2="77.088829"
     stroke-width="1"
     stroke-dasharray="none"
     stroke="#0000ff"
     id="line1835" />
  <line
     x1="248.37024"
     y1="78.04229"
     x2="249.25891"
     y2="78.555687"
     stroke-width="1"
     stroke-dasharray="none"
     stroke="#0000ff"
     id="line1837" />
  <line
     x1="248.37024"
     y1="76.575432"
     x2="249.25891"
     y2="77.088829"
     stroke-width="1"
     stroke-dasharray="none"
     stroke="#0000ff"
     id="line1839" />
  <line
     x1="261.98328"
     y1="78.04229"
     x2="262.87195"
     y2="78.555687"
     stroke-width="1"
     stroke-dasharray="1"
     stroke="#0000ff"
     id="line1841" />
  <line
     x1="261.98328"
     y1="76.575432"
     x2="262.87195"
     y2="77.088829"
     stroke-width="1"
     stroke-dasharray="none"
     stroke="#0000ff"
     id="line1843" />
  <line
     x1="248.37024"
     y1="78.04229"
     x2="261.98328"
     y2="78.04229"
     stroke-width="1"
     stroke-dasharray="1"
     stroke="#0000ff"
     id="line1845" />
  <line
     x1="249.25891"
     y1="78.555687"
     x2="262.87195"
     y2="78.555687"
     stroke-width="1"
     stroke-dasharray="none"
     stroke="#0000ff"
     id="line1847" />
  <line
     x1="248.37024"
     y1="76.575432"
     x2="261.98328"
     y2="76.575432"
     stroke-width="1"
     stroke-dasharray="none"
     stroke="#0000ff"
     id="line1849" />
  <line
     x1="249.25891"
     y1="77.088829"
     x2="262.87195"
     y2="77.088829"
     stroke-width="1"
     stroke-dasharray="none"
     stroke="#0000ff"
     id="line1851" />
  <path
     id="line1853"
     style="stroke:#0000ff;stroke-width:1;stroke-dasharray:none"
     d="m 263.20595,76.278594 10.38779,21.06669"
     sodipodi:nodetypes="cc" />
  <path
     id="line1855"
     style="stroke:#0000ff;stroke-width:1;stroke-dasharray:none"
     d="m 262.72064,78.481364 10.6496,19.56092"
     sodipodi:nodetypes="cc" />
  <line
     x1="273.37024"
     y1="98.04229"
     x2="273.37024"
     y2="96.575432"
     stroke-width="1"
     stroke-dasharray="none"
     stroke="#0000ff"
     id="line1861" />
  <line
     x1="290.7326"
     y1="98.04229"
     x2="290.7326"
     y2="96.575432"
     stroke-width="1"
     stroke-dasharray="1"
     stroke="#0000ff"
     id="line1863" />
  <line
     x1="274.25891"
     y1="98.555687"
     x2="274.25891"
     y2="97.088829"
     stroke-width="1"
     stroke-dasharray="none"
     stroke="#0000ff"
     id="line1865" />
  <line
     x1="291.62134"
     y1="98.555687"
     x2="291.62134"
     y2="97.088829"
     stroke-width="1"
     stroke-dasharray="none"
     stroke="#0000ff"
     id="line1867" />
  <line
     x1="273.37024"
     y1="98.04229"
     x2="274.25891"
     y2="98.555687"
     stroke-width="1"
     stroke-dasharray="none"
     stroke="#0000ff"
     id="line1869" />
  <line
     x1="273.37024"
     y1="96.575432"
     x2="274.25891"
     y2="97.088829"
     stroke-width="1"
     stroke-dasharray="none"
     stroke="#0000ff"
     id="line1871" />
  <line
     x1="290.7326"
     y1="98.04229"
     x2="291.62134"
     y2="98.555687"
     stroke-width="1"
     stroke-dasharray="1"
     stroke="#0000ff"
     id="line1873" />
  <line
     x1="290.7326"
     y1="96.575432"
     x2="291.62134"
     y2="97.088829"
     stroke-width="1"
     stroke-dasharray="none"
     stroke="#0000ff"
     id="line1875" />
  <line
     x1="273.37024"
     y1="98.04229"
     x2="290.7326"
     y2="98.04229"
     stroke-width="1"
     stroke-dasharray="1"
     stroke="#0000ff"
     id="line1877" />
  <line
     x1="274.25891"
     y1="98.555687"
     x2="291.62134"
     y2="98.555687"
     stroke-width="1"
     stroke-dasharray="none"
     stroke="#0000ff"
     id="line1879" />
  <line
     x1="273.37024"
     y1="96.575432"
     x2="290.7326"
     y2="96.575432"
     stroke-width="1"
     stroke-dasharray="none"
     stroke="#0000ff"
     id="line1881" />
  <line
     x1="274.25891"
     y1="97.088829"
     x2="291.62134"
     y2="97.088829"
     stroke-width="1"
     stroke-dasharray="none"
     stroke="#0000ff"
     id="line1883" />
  <path
     id="line1887"
     style="stroke:#0000ff;stroke-width:1;stroke-dasharray:none"
     d="m 291.62136,98.555684 11.82332,-21.28069"
     sodipodi:nodetypes="cc" />
  <line
     x1="156.44467"
     y1="0.16740647"
     x2="156.44467"
     y2="-26.725002"
     stroke-width="1"
     stroke-dasharray="none"
     stroke="#000000"
     id="line1453" />
  <line
     x1="164.00209"
     y1="0.16740647"
     x2="164.00209"
     y2="-26.725002"
     stroke-width="1"
     stroke-dasharray="1"
     stroke="#000000"
     id="line1455" />
  <line
     x1="172.7377"
     y1="9.5797482"
     x2="172.7377"
     y2="-17.312662"
     stroke-width="1"
     stroke-dasharray="none"
     stroke="#000000"
     id="line1457" />
  <line
     x1="180.2951"
     y1="9.5797482"
     x2="180.2951"
     y2="-17.312662"
     stroke-width="1"
     stroke-dasharray="none"
     stroke="#000000"
     id="line1459" />
  <line
     x1="156.44467"
     y1="0.16740647"
     x2="172.7377"
     y2="9.5797482"
     stroke-width="1"
     stroke-dasharray="none"
     stroke="#000000"
     id="line1461" />
  <line
     x1="156.44467"
     y1="-26.725002"
     x2="172.7377"
     y2="-17.312662"
     stroke-width="1"
     stroke-dasharray="none"
     stroke="#000000"
     id="line1463" />
  <line
     x1="164.00209"
     y1="0.16740647"
     x2="180.2951"
     y2="9.5797482"
     stroke-width="1"
     stroke-dasharray="1"
     stroke="#000000"
     id="line1465" />
  <line
     x1="164.00209"
     y1="-26.725002"
     x2="180.2951"
     y2="-17.312662"
     stroke-width="1"
     stroke-dasharray="none"
     stroke="#000000"
     id="line1467" />
  <line
     x1="156.44467"
     y1="0.16740647"
     x2="164.00209"
     y2="0.16740647"
     stroke-width="1"
     stroke-dasharray="1"
     stroke="#000000"
     id="line1469" />
  <line
     x1="172.7377"
     y1="9.5797482"
     x2="180.2951"
     y2="9.5797482"
     stroke-width="1"
     stroke-dasharray="none"
     stroke="#000000"
     id="line1471" />
  <line
     x1="156.44467"
     y1="-26.725002"
     x2="164.00209"
     y2="-26.725002"
     stroke-width="1"
     stroke-dasharray="none"
     stroke="#000000"
     id="line1473" />
  <line
     x1="172.7377"
     y1="-17.312662"
     x2="180.2951"
     y2="-17.312662"
     stroke-width="1"
     stroke-dasharray="none"
     stroke="#000000"
     id="line1475" />
  <line
     x1="164.59119"
     y1="-8.0958958"
     x2="164.59119"
     y2="-9.5627613"
     stroke-width="1"
     stroke-dasharray="none"
     stroke="#0000ff"
     id="line1733" />
  <line
     x1="172.14859"
     y1="-8.0958958"
     x2="172.14859"
     y2="-9.5627613"
     stroke-width="1"
     stroke-dasharray="1"
     stroke="#0000ff"
     id="line1735" />
  <line
     x1="165.47989"
     y1="-7.5825057"
     x2="165.47989"
     y2="-9.0493565"
     stroke-width="1"
     stroke-dasharray="none"
     stroke="#0000ff"
     id="line1737" />
  <line
     x1="173.03731"
     y1="-7.5825057"
     x2="173.03731"
     y2="-9.0493565"
     stroke-width="1"
     stroke-dasharray="none"
     stroke="#0000ff"
     id="line1739" />
  <line
     x1="164.59119"
     y1="-8.0958958"
     x2="165.47989"
     y2="-7.5825057"
     stroke-width="1"
     stroke-dasharray="none"
     stroke="#0000ff"
     id="line1741" />
  <line
     x1="164.59119"
     y1="-9.5627613"
     x2="165.47989"
     y2="-9.0493565"
     stroke-width="1"
     stroke-dasharray="none"
     stroke="#0000ff"
     id="line1743" />
  <line
     x1="172.14859"
     y1="-8.0958958"
     x2="173.03731"
     y2="-7.5825057"
     stroke-width="1"
     stroke-dasharray="1"
     stroke="#0000ff"
     id="line1745" />
  <line
     x1="172.14859"
     y1="-9.5627613"
     x2="173.03731"
     y2="-9.0493565"
     stroke-width="1"
     stroke-dasharray="none"
     stroke="#0000ff"
     id="line1747" />
  <line
     x1="164.59119"
     y1="-8.0958958"
     x2="172.14859"
     y2="-8.0958958"
     stroke-width="1"
     stroke-dasharray="1"
     stroke="#0000ff"
     id="line1749" />
  <line
     x1="165.47989"
     y1="-7.5825057"
     x2="173.03731"
     y2="-7.5825057"
     stroke-width="1"
     stroke-dasharray="none"
     stroke="#0000ff"
     id="line1751" />
  <line
     x1="164.59119"
     y1="-9.5627613"
     x2="172.14859"
     y2="-9.5627613"
     stroke-width="1"
     stroke-dasharray="none"
     stroke="#0000ff"
     id="line1753" />
  <line
     x1="165.47989"
     y1="-9.0493565"
     x2="173.03731"
     y2="-9.0493565"
     stroke-width="1"
     stroke-dasharray="none"
     stroke="#0000ff"
     id="line1755" />
  <metadata
     id="metadata1983">
    <rdf:RDF>
      <cc:Work
         rdf:about="">
        <dc:format>image/svg+xml</dc:format>
        <dc:type
           rdf:resource="http://purl.org/dc/dcmitype/StillImage" />
        <dc:title></dc:title>
      </cc:Work>
    </rdf:RDF>
  </metadata>
  <defs
     id="defs1981">
    <marker
       style="overflow:visible"
       id="marker19712"
       refX="0"
       refY="0"
       orient="auto"
       inkscape:stockid="TriangleOutS"
       inkscape:isstock="true">
      <path
         transform="scale(0.2)"
         style="fill:#000000;fill-opacity:1;fill-rule:evenodd;stroke:#000000;stroke-width:1pt;stroke-opacity:1"
         d="M 5.77,0 -2.88,5 V -5 Z"
         id="path19710" />
    </marker>
    <marker
       style="overflow:visible"
       id="marker19656"
       refX="0"
       refY="0"
       orient="auto"
       inkscape:stockid="TriangleOutS"
       inkscape:isstock="true"
       inkscape:collect="always">
      <path
         transform="scale(0.2)"
         style="fill:#000000;fill-opacity:1;fill-rule:evenodd;stroke:#000000;stroke-width:1pt;stroke-opacity:1"
         d="M 5.77,0 -2.88,5 V -5 Z"
         id="path19654" />
    </marker>
    <marker
       style="overflow:visible"
       id="marker19608"
       refX="0"
       refY="0"
       orient="auto"
       inkscape:stockid="TriangleOutS"
       inkscape:isstock="true"
       inkscape:collect="always">
      <path
         transform="scale(0.2)"
         style="fill:#000000;fill-opacity:1;fill-rule:evenodd;stroke:#000000;stroke-width:1pt;stroke-opacity:1"
         d="M 5.77,0 -2.88,5 V -5 Z"
         id="path19606" />
    </marker>
    <marker
       style="overflow:visible"
       id="marker19568"
       refX="0"
       refY="0"
       orient="auto"
       inkscape:stockid="TriangleOutS"
       inkscape:isstock="true"
       inkscape:collect="always">
      <path
         transform="scale(0.2)"
         style="fill:#000000;fill-opacity:1;fill-rule:evenodd;stroke:#000000;stroke-width:1pt;stroke-opacity:1"
         d="M 5.77,0 -2.88,5 V -5 Z"
         id="path19566" />
    </marker>
    <marker
       style="overflow:visible"
       id="marker4945"
       refX="0"
       refY="0"
       orient="auto"
       inkscape:stockid="TriangleOutS"
       inkscape:isstock="true"
       inkscape:collect="always">
      <path
         transform="scale(0.2)"
         style="fill:#000000;fill-opacity:1;fill-rule:evenodd;stroke:#000000;stroke-width:1pt;stroke-opacity:1"
         d="M 5.77,0 -2.88,5 V -5 Z"
         id="path4943" />
    </marker>
  </defs>
  <sodipodi:namedview
     pagecolor="#ffffff"
     bordercolor="#666666"
     borderopacity="1"
     objecttolerance="10"
     gridtolerance="10"
     guidetolerance="10"
     inkscape:pageopacity="0"
     inkscape:pageshadow="2"
     inkscape:window-width="2560"
     inkscape:window-height="1376"
     id="namedview1979"
     showgrid="true"
     units="mm"
     fit-margin-top="0"
     fit-margin-left="0"
     fit-margin-right="0"
     fit-margin-bottom="0"
     inkscape:zoom="1.6327525"
     inkscape:cx="152.97612"
     inkscape:cy="100.00305"
     inkscape:window-x="0"
     inkscape:window-y="27"
     inkscape:window-maximized="1"
     inkscape:current-layer="svg1977"
     inkscape:document-rotation="0"
     inkscape:snap-global="true">
    <inkscape:grid
       type="xygrid"
       id="grid17719"
       originx="1.4446793"
       originy="-44.500003" />
  </sodipodi:namedview>
  <text
     x="212.42056"
     y="280.31924"
     font-family="arial"
     font-size="8.29992px"
     text-anchor="middle"
     fill="#000000"
     id="text1923"
     transform="matrix(0.70699472,-0.70699472,0.70721886,0.70721886,0,0)"
     style="font-style:normal;font-variant:normal;font-weight:normal;font-stretch:normal;font-size:16px;font-family:STIX;-inkscape-font-specification:STIX;stroke-width:0.999998" />
  <text
     x="345.2771"
     y="278.43915"
     font-family="arial"
     font-size="8.29992px"
     text-anchor="middle"
     fill="#000000"
     id="text1955"
     transform="matrix(0.70699472,-0.70699472,0.70721886,0.70721886,0,0)"
     style="font-style:normal;font-variant:normal;font-weight:normal;font-stretch:normal;font-size:16px;font-family:STIX;-inkscape-font-specification:STIX;stroke-width:0.999998" />
  <line
     x1="406.44467"
     y1="-75.732735"
     x2="406.44467"
     y2="-186.72501"
     stroke-width="1"
     stroke-dasharray="none"
     stroke="#000000"
     id="line19179" />
  <line
     x1="407.38934"
     y1="-75.732735"
     x2="407.38934"
     y2="-186.72501"
     stroke-width="1"
     stroke-dasharray="1"
     stroke="#000000"
     id="line19181" />
  <line
     x1="473.69046"
     y1="-36.885437"
     x2="473.69046"
     y2="-147.87772"
     stroke-width="1"
     stroke-dasharray="none"
     stroke="#000000"
     id="line19183" />
  <line
     x1="474.63513"
     y1="-36.885437"
     x2="474.63513"
     y2="-147.87772"
     stroke-width="1"
     stroke-dasharray="none"
     stroke="#000000"
     id="line19185" />
  <line
     x1="406.44467"
     y1="-75.732735"
     x2="473.69046"
     y2="-36.885437"
     stroke-width="1"
     stroke-dasharray="none"
     stroke="#000000"
     id="line19187" />
  <line
     x1="406.44467"
     y1="-186.72501"
     x2="473.69046"
     y2="-147.87772"
     stroke-width="1"
     stroke-dasharray="none"
     stroke="#000000"
     id="line19189" />
  <line
     x1="407.38934"
     y1="-75.732735"
     x2="474.63513"
     y2="-36.885437"
     stroke-width="1"
     stroke-dasharray="1"
     stroke="#000000"
     id="line19191" />
  <line
     x1="407.38934"
     y1="-186.72501"
     x2="474.63513"
     y2="-147.87772"
     stroke-width="1"
     stroke-dasharray="none"
     stroke="#000000"
     id="line19193" />
  <line
     x1="406.44467"
     y1="-75.732735"
     x2="407.38934"
     y2="-75.732735"
     stroke-width="1"
     stroke-dasharray="1"
     stroke="#000000"
     id="line19195" />
  <line
     x1="473.69046"
     y1="-36.885437"
     x2="474.63513"
     y2="-36.885437"
     stroke-width="1"
     stroke-dasharray="none"
     stroke="#000000"
     id="line19197" />
  <line
     x1="406.44467"
     y1="-186.72501"
     x2="407.38934"
     y2="-186.72501"
     stroke-width="1"
     stroke-dasharray="none"
     stroke="#000000"
     id="line19199" />
  <line
     x1="473.69046"
     y1="-147.87772"
     x2="474.63513"
     y2="-147.87772"
     stroke-width="1"
     stroke-dasharray="none"
     stroke="#000000"
     id="line19201" />
  <line
     x1="351.4447"
     y1="31.476728"
     x2="351.4447"
     y2="18.275"
     stroke-width="1"
     stroke-dasharray="none"
     stroke="#000000"
     id="line19203" />
  <line
     x1="359.00214"
     y1="31.476728"
     x2="359.00214"
     y2="18.275"
     stroke-width="1"
     stroke-dasharray="1"
     stroke="#000000"
     id="line19205" />
  <line
     x1="359.44312"
     y1="36.097328"
     x2="359.44312"
     y2="22.895605"
     stroke-width="1"
     stroke-dasharray="none"
     stroke="#000000"
     id="line19207" />
  <line
     x1="367.00049"
     y1="36.097328"
     x2="367.00049"
     y2="22.895605"
     stroke-width="1"
     stroke-dasharray="none"
     stroke="#000000"
     id="line19209" />
  <line
     x1="351.4447"
     y1="31.476728"
     x2="359.44312"
     y2="36.097328"
     stroke-width="1"
     stroke-dasharray="none"
     stroke="#000000"
     id="line19211" />
  <line
     x1="351.4447"
     y1="18.275"
     x2="359.44312"
     y2="22.895605"
     stroke-width="1"
     stroke-dasharray="none"
     stroke="#000000"
     id="line19213" />
  <line
     x1="359.00214"
     y1="31.476728"
     x2="367.00049"
     y2="36.097328"
     stroke-width="1"
     stroke-dasharray="1"
     stroke="#000000"
     id="line19215" />
  <line
     x1="359.00214"
     y1="18.275"
     x2="367.00049"
     y2="22.895605"
     stroke-width="1"
     stroke-dasharray="none"
     stroke="#000000"
     id="line19217" />
  <line
     x1="351.4447"
     y1="31.476728"
     x2="359.00214"
     y2="31.476728"
     stroke-width="1"
     stroke-dasharray="1"
     stroke="#000000"
     id="line19219" />
  <line
     x1="359.44312"
     y1="36.097328"
     x2="367.00049"
     y2="36.097328"
     stroke-width="1"
     stroke-dasharray="none"
     stroke="#000000"
     id="line19221" />
  <line
     x1="351.4447"
     y1="18.275"
     x2="359.00214"
     y2="18.275"
     stroke-width="1"
     stroke-dasharray="none"
     stroke="#000000"
     id="line19223" />
  <line
     x1="359.44312"
     y1="22.895605"
     x2="367.00049"
     y2="22.895605"
     stroke-width="1"
     stroke-dasharray="none"
     stroke="#000000"
     id="line19225" />
  <line
     x1="326.4447"
     y1="61.476715"
     x2="326.4447"
     y2="48.275002"
     stroke-width="1"
     stroke-dasharray="none"
     stroke="#000000"
     id="line19227" />
  <line
     x1="340.05768"
     y1="61.476715"
     x2="340.05768"
     y2="48.275002"
     stroke-width="1"
     stroke-dasharray="1"
     stroke="#000000"
     id="line19229" />
  <line
     x1="334.44305"
     y1="66.097321"
     x2="334.44305"
     y2="52.895592"
     stroke-width="1"
     stroke-dasharray="none"
     stroke="#000000"
     id="line19231" />
  <line
     x1="348.05609"
     y1="66.097321"
     x2="348.05609"
     y2="52.895592"
     stroke-width="1"
     stroke-dasharray="none"
     stroke="#000000"
     id="line19233" />
  <line
     x1="326.4447"
     y1="61.476715"
     x2="334.44305"
     y2="66.097321"
     stroke-width="1"
     stroke-dasharray="none"
     stroke="#000000"
     id="line19235" />
  <line
     x1="326.4447"
     y1="48.275002"
     x2="334.44305"
     y2="52.895592"
     stroke-width="1"
     stroke-dasharray="none"
     stroke="#000000"
     id="line19237" />
  <line
     x1="340.05768"
     y1="61.476715"
     x2="348.05609"
     y2="66.097321"
     stroke-width="1"
     stroke-dasharray="1"
     stroke="#000000"
     id="line19239" />
  <line
     x1="340.05768"
     y1="48.275002"
     x2="348.05609"
     y2="52.895592"
     stroke-width="1"
     stroke-dasharray="none"
     stroke="#000000"
     id="line19241" />
  <line
     x1="326.4447"
     y1="61.476715"
     x2="340.05768"
     y2="61.476715"
     stroke-width="1"
     stroke-dasharray="1"
     stroke="#000000"
     id="line19243" />
  <line
     x1="334.44305"
     y1="66.097321"
     x2="348.05609"
     y2="66.097321"
     stroke-width="1"
     stroke-dasharray="none"
     stroke="#000000"
     id="line19245" />
  <line
     x1="326.4447"
     y1="48.275002"
     x2="340.05768"
     y2="48.275002"
     stroke-width="1"
     stroke-dasharray="none"
     stroke="#000000"
     id="line19247" />
  <line
     x1="334.44305"
     y1="52.895592"
     x2="348.05609"
     y2="52.895592"
     stroke-width="1"
     stroke-dasharray="none"
     stroke="#000000"
     id="line19249" />
  <line
     x1="301.4447"
     y1="79.631386"
     x2="301.4447"
     y2="73.275002"
     stroke-width="1"
     stroke-dasharray="none"
     stroke="#000000"
     id="line19251" />
  <line
     x1="315.05768"
     y1="79.631386"
     x2="315.05768"
     y2="73.275002"
     stroke-width="1"
     stroke-dasharray="1"
     stroke="#000000"
     id="line19253" />
  <line
     x1="305.29578"
     y1="81.856117"
     x2="305.29578"
     y2="75.499733"
     stroke-width="1"
     stroke-dasharray="none"
     stroke="#000000"
     id="line19255" />
  <line
     x1="318.90875"
     y1="81.856117"
     x2="318.90875"
     y2="75.499733"
     stroke-width="1"
     stroke-dasharray="none"
     stroke="#000000"
     id="line19257" />
  <line
     x1="301.4447"
     y1="79.631386"
     x2="305.29578"
     y2="81.856117"
     stroke-width="1"
     stroke-dasharray="none"
     stroke="#000000"
     id="line19259" />
  <line
     x1="301.4447"
     y1="73.275002"
     x2="305.29578"
     y2="75.499733"
     stroke-width="1"
     stroke-dasharray="none"
     stroke="#000000"
     id="line19261" />
  <line
     x1="315.05768"
     y1="79.631386"
     x2="318.90875"
     y2="81.856117"
     stroke-width="1"
     stroke-dasharray="1"
     stroke="#000000"
     id="line19263" />
  <line
     x1="315.05768"
     y1="73.275002"
     x2="318.90875"
     y2="75.499733"
     stroke-width="1"
     stroke-dasharray="none"
     stroke="#000000"
     id="line19265" />
  <line
     x1="301.4447"
     y1="79.631386"
     x2="315.05768"
     y2="79.631386"
     stroke-width="1"
     stroke-dasharray="1"
     stroke="#000000"
     id="line19267" />
  <line
     x1="305.29578"
     y1="81.856117"
     x2="318.90875"
     y2="81.856117"
     stroke-width="1"
     stroke-dasharray="none"
     stroke="#000000"
     id="line19269" />
  <line
     x1="301.4447"
     y1="73.275002"
     x2="315.05768"
     y2="73.275002"
     stroke-width="1"
     stroke-dasharray="none"
     stroke="#000000"
     id="line19271" />
  <line
     x1="305.29578"
     y1="75.499733"
     x2="318.90875"
     y2="75.499733"
     stroke-width="1"
     stroke-dasharray="none"
     stroke="#000000"
     id="line19273" />
  <line
     x1="440.06757"
     y1="-110.05722"
     x2="440.06757"
     y2="-115.4357"
     stroke-width="1"
     stroke-dasharray="none"
     stroke="#0000ff"
     id="line19299" />
  <line
     x1="441.01224"
     y1="-110.05722"
     x2="441.01224"
     y2="-115.4357"
     stroke-width="1"
     stroke-dasharray="1"
     stroke="#0000ff"
     id="line19301" />
  <line
     x1="443.32617"
     y1="-108.17475"
     x2="443.32617"
     y2="-113.55323"
     stroke-width="1"
     stroke-dasharray="none"
     stroke="#0000ff"
     id="line19303" />
  <line
     x1="444.27084"
     y1="-108.17475"
     x2="444.27084"
     y2="-113.55323"
     stroke-width="1"
     stroke-dasharray="none"
     stroke="#0000ff"
     id="line19305" />
  <line
     x1="440.06757"
     y1="-110.05722"
     x2="443.32617"
     y2="-108.17475"
     stroke-width="1"
     stroke-dasharray="none"
     stroke="#0000ff"
     id="line19307" />
  <line
     x1="440.06757"
     y1="-115.4357"
     x2="443.32617"
     y2="-113.55323"
     stroke-width="1"
     stroke-dasharray="none"
     stroke="#0000ff"
     id="line19309" />
  <line
     x1="441.01224"
     y1="-110.05722"
     x2="444.27084"
     y2="-108.17475"
     stroke-width="1"
     stroke-dasharray="1"
     stroke="#0000ff"
     id="line19311" />
  <line
     x1="441.01224"
     y1="-115.4357"
     x2="444.27084"
     y2="-113.55323"
     stroke-width="1"
     stroke-dasharray="none"
     stroke="#0000ff"
     id="line19313" />
  <line
     x1="440.06757"
     y1="-110.05722"
     x2="441.01224"
     y2="-110.05722"
     stroke-width="1"
     stroke-dasharray="1"
     stroke="#0000ff"
     id="line19315" />
  <line
     x1="443.32617"
     y1="-108.17475"
     x2="444.27084"
     y2="-108.17475"
     stroke-width="1"
     stroke-dasharray="none"
     stroke="#0000ff"
     id="line19317" />
  <line
     x1="440.06757"
     y1="-115.4357"
     x2="441.01224"
     y2="-115.4357"
     stroke-width="1"
     stroke-dasharray="none"
     stroke="#0000ff"
     id="line19319" />
  <line
     x1="443.32617"
     y1="-113.55323"
     x2="444.27084"
     y2="-113.55323"
     stroke-width="1"
     stroke-dasharray="none"
     stroke="#0000ff"
     id="line19321" />
  <path
     id="line19327"
     style="stroke:#0000ff;stroke-width:1;stroke-dasharray:none"
     d="M 387.14859,-9.562761 440.44468,-114.725"
     sodipodi:nodetypes="cc" />
  <path
     id="line19329"
     style="stroke:#0000ff;stroke-width:1;stroke-dasharray:none"
     d="M 388.0373,-7.582506 440.44468,-114.725"
     sodipodi:nodetypes="cc" />
  <line
     x1="355.44391"
     y1="27.980719"
     x2="355.44391"
     y2="25.535948"
     stroke-width="1"
     stroke-dasharray="none"
     stroke="#0000ff"
     id="line19331" />
  <line
     x1="363.00128"
     y1="27.980719"
     x2="363.00128"
     y2="25.535948"
     stroke-width="1"
     stroke-dasharray="1"
     stroke="#0000ff"
     id="line19333" />
  <line
     x1="356.92511"
     y1="28.836378"
     x2="356.92511"
     y2="26.391615"
     stroke-width="1"
     stroke-dasharray="none"
     stroke="#0000ff"
     id="line19335" />
  <line
     x1="364.48248"
     y1="28.836378"
     x2="364.48248"
     y2="26.391615"
     stroke-width="1"
     stroke-dasharray="none"
     stroke="#0000ff"
     id="line19337" />
  <line
     x1="355.44391"
     y1="27.980719"
     x2="356.92511"
     y2="28.836378"
     stroke-width="1"
     stroke-dasharray="none"
     stroke="#0000ff"
     id="line19339" />
  <line
     x1="355.44391"
     y1="25.535948"
     x2="356.92511"
     y2="26.391615"
     stroke-width="1"
     stroke-dasharray="none"
     stroke="#0000ff"
     id="line19341" />
  <line
     x1="363.00128"
     y1="27.980719"
     x2="364.48248"
     y2="28.836378"
     stroke-width="1"
     stroke-dasharray="1"
     stroke="#0000ff"
     id="line19343" />
  <line
     x1="363.00128"
     y1="25.535948"
     x2="364.48248"
     y2="26.391615"
     stroke-width="1"
     stroke-dasharray="none"
     stroke="#0000ff"
     id="line19345" />
  <line
     x1="355.44391"
     y1="27.980719"
     x2="363.00128"
     y2="27.980719"
     stroke-width="1"
     stroke-dasharray="1"
     stroke="#0000ff"
     id="line19347" />
  <line
     x1="356.92511"
     y1="28.836378"
     x2="364.48248"
     y2="28.836378"
     stroke-width="1"
     stroke-dasharray="none"
     stroke="#0000ff"
     id="line19349" />
  <line
     x1="355.44391"
     y1="25.535948"
     x2="363.00128"
     y2="25.535948"
     stroke-width="1"
     stroke-dasharray="none"
     stroke="#0000ff"
     id="line19351" />
  <line
     x1="356.92511"
     y1="26.391615"
     x2="364.48248"
     y2="26.391615"
     stroke-width="1"
     stroke-dasharray="none"
     stroke="#0000ff"
     id="line19353" />
  <path
     id="line19355"
     style="stroke:#0000ff;stroke-width:1;stroke-dasharray:none"
     d="m 363.0013,25.535948 16.44338,-34.26095"
     sodipodi:nodetypes="cc" />
  <path
     id="line19357"
     style="stroke:#0000ff;stroke-width:1;stroke-dasharray:none"
     d="m 364.4825,28.836378 14.96218,-36.56138"
     sodipodi:nodetypes="cc" />
  <line
     x1="330.44385"
     y1="57.662895"
     x2="330.44385"
     y2="56.196022"
     stroke-width="1"
     stroke-dasharray="none"
     stroke="#0000ff"
     id="line19359" />
  <line
     x1="344.05688"
     y1="57.662895"
     x2="344.05688"
     y2="56.196022"
     stroke-width="1"
     stroke-dasharray="1"
     stroke="#0000ff"
     id="line19361" />
  <line
     x1="331.33258"
     y1="58.176285"
     x2="331.33258"
     y2="56.709435"
     stroke-width="1"
     stroke-dasharray="none"
     stroke="#0000ff"
     id="line19363" />
  <line
     x1="344.94562"
     y1="58.176285"
     x2="344.94562"
     y2="56.709435"
     stroke-width="1"
     stroke-dasharray="none"
     stroke="#0000ff"
     id="line19365" />
  <line
     x1="330.44385"
     y1="57.662895"
     x2="331.33258"
     y2="58.176285"
     stroke-width="1"
     stroke-dasharray="none"
     stroke="#0000ff"
     id="line19367" />
  <line
     x1="330.44385"
     y1="56.196022"
     x2="331.33258"
     y2="56.709435"
     stroke-width="1"
     stroke-dasharray="none"
     stroke="#0000ff"
     id="line19369" />
  <line
     x1="344.05688"
     y1="57.662895"
     x2="344.94562"
     y2="58.176285"
     stroke-width="1"
     stroke-dasharray="1"
     stroke="#0000ff"
     id="line19371" />
  <line
     x1="344.05688"
     y1="56.196022"
     x2="344.94562"
     y2="56.709435"
     stroke-width="1"
     stroke-dasharray="none"
     stroke="#0000ff"
     id="line19373" />
  <line
     x1="330.44385"
     y1="57.662895"
     x2="344.05688"
     y2="57.662895"
     stroke-width="1"
     stroke-dasharray="1"
     stroke="#0000ff"
     id="line19375" />
  <line
     x1="331.33258"
     y1="58.176285"
     x2="344.94562"
     y2="58.176285"
     stroke-width="1"
     stroke-dasharray="none"
     stroke="#0000ff"
     id="line19377" />
  <line
     x1="330.44385"
     y1="56.196022"
     x2="344.05688"
     y2="56.196022"
     stroke-width="1"
     stroke-dasharray="none"
     stroke="#0000ff"
     id="line19379" />
  <line
     x1="331.33258"
     y1="56.709435"
     x2="344.94562"
     y2="56.709435"
     stroke-width="1"
     stroke-dasharray="none"
     stroke="#0000ff"
     id="line19381" />
  <path
     id="line19383"
     style="stroke:#0000ff;stroke-width:1;stroke-dasharray:none"
     d="M 344.0569,56.196024 355.44468,26.274998"
     sodipodi:nodetypes="cc" />
  <path
     id="line19385"
     style="stroke:#0000ff;stroke-width:1;stroke-dasharray:none"
     d="M 344.94564,58.176284 355.44468,27.274998"
     sodipodi:nodetypes="cc" />
  <line
     x1="303.37024"
     y1="78.04229"
     x2="303.37024"
     y2="76.575432"
     stroke-width="1"
     stroke-dasharray="none"
     stroke="#0000ff"
     id="line19387" />
  <line
     x1="316.98328"
     y1="78.04229"
     x2="316.98328"
     y2="76.575432"
     stroke-width="1"
     stroke-dasharray="1"
     stroke="#0000ff"
     id="line19389" />
  <line
     x1="304.25891"
     y1="78.555687"
     x2="304.25891"
     y2="77.088829"
     stroke-width="1"
     stroke-dasharray="none"
     stroke="#0000ff"
     id="line19391" />
  <line
     x1="317.87195"
     y1="78.555687"
     x2="317.87195"
     y2="77.088829"
     stroke-width="1"
     stroke-dasharray="none"
     stroke="#0000ff"
     id="line19393" />
  <line
     x1="303.37024"
     y1="78.04229"
     x2="304.25891"
     y2="78.555687"
     stroke-width="1"
     stroke-dasharray="none"
     stroke="#0000ff"
     id="line19395" />
  <line
     x1="303.37024"
     y1="76.575432"
     x2="304.25891"
     y2="77.088829"
     stroke-width="1"
     stroke-dasharray="none"
     stroke="#0000ff"
     id="line19397" />
  <line
     x1="316.98328"
     y1="78.04229"
     x2="317.87195"
     y2="78.555687"
     stroke-width="1"
     stroke-dasharray="1"
     stroke="#0000ff"
     id="line19399" />
  <line
     x1="316.98328"
     y1="76.575432"
     x2="317.87195"
     y2="77.088829"
     stroke-width="1"
     stroke-dasharray="none"
     stroke="#0000ff"
     id="line19401" />
  <line
     x1="303.37024"
     y1="78.04229"
     x2="316.98328"
     y2="78.04229"
     stroke-width="1"
     stroke-dasharray="1"
     stroke="#0000ff"
     id="line19403" />
  <line
     x1="304.25891"
     y1="78.555687"
     x2="317.87195"
     y2="78.555687"
     stroke-width="1"
     stroke-dasharray="none"
     stroke="#0000ff"
     id="line19405" />
  <line
     x1="303.37024"
     y1="76.575432"
     x2="316.98328"
     y2="76.575432"
     stroke-width="1"
     stroke-dasharray="none"
     stroke="#0000ff"
     id="line19407" />
  <line
     x1="304.25891"
     y1="77.088829"
     x2="317.87195"
     y2="77.088829"
     stroke-width="1"
     stroke-dasharray="none"
     stroke="#0000ff"
     id="line19409" />
  <path
     id="line19411"
     style="stroke:#0000ff;stroke-width:1;stroke-dasharray:none"
     d="M 316.98327,76.575434 331.3326,58.176284"
     sodipodi:nodetypes="cc" />
  <path
     id="line19413"
     style="stroke:#0000ff;stroke-width:1;stroke-dasharray:none"
     d="m 317.87194,78.555684 13.57274,-20.28069"
     sodipodi:nodetypes="cc" />
  <line
     x1="371.4447"
     y1="0.16740647"
     x2="371.4447"
     y2="-26.725002"
     stroke-width="1"
     stroke-dasharray="none"
     stroke="#000000"
     id="line19443" />
  <line
     x1="379.00211"
     y1="0.16740647"
     x2="379.00211"
     y2="-26.725002"
     stroke-width="1"
     stroke-dasharray="1"
     stroke="#000000"
     id="line19445" />
  <line
     x1="387.7377"
     y1="9.5797482"
     x2="387.7377"
     y2="-17.312662"
     stroke-width="1"
     stroke-dasharray="none"
     stroke="#000000"
     id="line19447" />
  <line
     x1="395.2951"
     y1="9.5797482"
     x2="395.2951"
     y2="-17.312662"
     stroke-width="1"
     stroke-dasharray="none"
     stroke="#000000"
     id="line19449" />
  <line
     x1="371.4447"
     y1="0.16740647"
     x2="387.7377"
     y2="9.5797482"
     stroke-width="1"
     stroke-dasharray="none"
     stroke="#000000"
     id="line19451" />
  <line
     x1="371.4447"
     y1="-26.725002"
     x2="387.7377"
     y2="-17.312662"
     stroke-width="1"
     stroke-dasharray="none"
     stroke="#000000"
     id="line19453" />
  <line
     x1="379.00211"
     y1="0.16740647"
     x2="395.2951"
     y2="9.5797482"
     stroke-width="1"
     stroke-dasharray="1"
     stroke="#000000"
     id="line19455" />
  <line
     x1="379.00211"
     y1="-26.725002"
     x2="395.2951"
     y2="-17.312662"
     stroke-width="1"
     stroke-dasharray="none"
     stroke="#000000"
     id="line19457" />
  <line
     x1="371.4447"
     y1="0.16740647"
     x2="379.00211"
     y2="0.16740647"
     stroke-width="1"
     stroke-dasharray="1"
     stroke="#000000"
     id="line19459" />
  <line
     x1="387.7377"
     y1="9.5797482"
     x2="395.2951"
     y2="9.5797482"
     stroke-width="1"
     stroke-dasharray="none"
     stroke="#000000"
     id="line19461" />
  <line
     x1="371.4447"
     y1="-26.725002"
     x2="379.00211"
     y2="-26.725002"
     stroke-width="1"
     stroke-dasharray="none"
     stroke="#000000"
     id="line19463" />
  <line
     x1="387.7377"
     y1="-17.312662"
     x2="395.2951"
     y2="-17.312662"
     stroke-width="1"
     stroke-dasharray="none"
     stroke="#000000"
     id="line19465" />
  <line
     x1="379.59119"
     y1="-8.0958958"
     x2="379.59119"
     y2="-9.5627613"
     stroke-width="1"
     stroke-dasharray="none"
     stroke="#0000ff"
     id="line19467" />
  <line
     x1="387.14859"
     y1="-8.0958958"
     x2="387.14859"
     y2="-9.5627613"
     stroke-width="1"
     stroke-dasharray="1"
     stroke="#0000ff"
     id="line19469" />
  <line
     x1="380.47992"
     y1="-7.5825057"
     x2="380.47992"
     y2="-9.0493565"
     stroke-width="1"
     stroke-dasharray="none"
     stroke="#0000ff"
     id="line19471" />
  <line
     x1="388.03729"
     y1="-7.5825057"
     x2="388.03729"
     y2="-9.0493565"
     stroke-width="1"
     stroke-dasharray="none"
     stroke="#0000ff"
     id="line19473" />
  <line
     x1="379.59119"
     y1="-8.0958958"
     x2="380.47992"
     y2="-7.5825057"
     stroke-width="1"
     stroke-dasharray="none"
     stroke="#0000ff"
     id="line19475" />
  <line
     x1="379.59119"
     y1="-9.5627613"
     x2="380.47992"
     y2="-9.0493565"
     stroke-width="1"
     stroke-dasharray="none"
     stroke="#0000ff"
     id="line19477" />
  <line
     x1="387.14859"
     y1="-8.0958958"
     x2="388.03729"
     y2="-7.5825057"
     stroke-width="1"
     stroke-dasharray="1"
     stroke="#0000ff"
     id="line19479" />
  <line
     x1="387.14859"
     y1="-9.5627613"
     x2="388.03729"
     y2="-9.0493565"
     stroke-width="1"
     stroke-dasharray="none"
     stroke="#0000ff"
     id="line19481" />
  <line
     x1="379.59119"
     y1="-8.0958958"
     x2="387.14859"
     y2="-8.0958958"
     stroke-width="1"
     stroke-dasharray="1"
     stroke="#0000ff"
     id="line19483" />
  <line
     x1="380.47992"
     y1="-7.5825057"
     x2="388.03729"
     y2="-7.5825057"
     stroke-width="1"
     stroke-dasharray="none"
     stroke="#0000ff"
     id="line19485" />
  <line
     x1="379.59119"
     y1="-9.5627613"
     x2="387.14859"
     y2="-9.5627613"
     stroke-width="1"
     stroke-dasharray="none"
     stroke="#0000ff"
     id="line19487" />
  <line
     x1="380.47992"
     y1="-9.0493565"
     x2="388.03729"
     y2="-9.0493565"
     stroke-width="1"
     stroke-dasharray="none"
     stroke="#0000ff"
     id="line19489" />
  <path
     id="line1885"
     style="stroke:#0000ff;stroke-width:1;stroke-dasharray:none"
     d="m 290.73263,96.575434 12.6376,-20"
     sodipodi:nodetypes="cc" />
  <path
     id="line1759"
     style="stroke:#0000ff;stroke-width:1;stroke-dasharray:none"
     d="m 172.49074,-7.115965 22.77515,32.564042"
     sodipodi:nodetypes="cc" />
  <path
     id="line1757"
     style="stroke:#0000ff;stroke-width:1;stroke-dasharray:none"
     d="m 172.9253,-9.462617 22.60502,34.736138"
     sodipodi:nodetypes="cc" />
  <path
     style="vector-effect:none;fill:none;fill-opacity:0;stroke:#000000;stroke-width:3.77953;stroke-linecap:butt;stroke-linejoin:miter;stroke-miterlimit:4;stroke-dasharray:none;stroke-dashoffset:0;stroke-opacity:1;marker-end:url(#marker4945)"
     d="m 276.44468,78.274994 h 12.85039"
     id="path4941"
     sodipodi:nodetypes="cc" />
  <path
     style="vector-effect:none;fill:none;fill-opacity:0;stroke:#000000;stroke-width:3.77953;stroke-linecap:butt;stroke-linejoin:miter;stroke-miterlimit:4;stroke-dasharray:none;stroke-dashoffset:0;stroke-opacity:1;marker-end:url(#marker19568)"
     d="m 251.44468,58.274994 h 65"
     id="path19564"
     sodipodi:nodetypes="cc" />
  <path
     style="vector-effect:none;fill:none;fill-opacity:0;stroke:#000000;stroke-width:3.77953;stroke-linecap:butt;stroke-linejoin:miter;stroke-miterlimit:4;stroke-dasharray:none;stroke-dashoffset:0;stroke-opacity:1;marker-end:url(#marker19608)"
     d="m 216.44468,28.274998 h 125"
     id="path19604"
     sodipodi:nodetypes="cc" />
  <path
     style="vector-effect:none;fill:none;fill-opacity:0;stroke:#000000;stroke-width:3.77953;stroke-linecap:butt;stroke-linejoin:miter;stroke-miterlimit:4;stroke-dasharray:none;stroke-dashoffset:0;stroke-opacity:1;marker-end:url(#marker19656)"
     d="m 191.44468,-11.725002 h 170"
     id="path19652"
     sodipodi:nodetypes="cc" />
  <path
     style="vector-effect:none;fill:none;fill-opacity:0;stroke:#000000;stroke-width:3.77953;stroke-linecap:butt;stroke-linejoin:miter;stroke-miterlimit:4;stroke-dasharray:none;stroke-dashoffset:0;stroke-opacity:1;marker-end:url(#marker19712)"
     d="m 156.44468,-111.725 h 240"
     id="path19708"
     sodipodi:nodetypes="cc" />
</svg>
