<?xml version="1.0" encoding="UTF-8" standalone="no"?>
<svg
   xmlns:dc="http://purl.org/dc/elements/1.1/"
   xmlns:cc="http://creativecommons.org/ns#"
   xmlns:rdf="http://www.w3.org/1999/02/22-rdf-syntax-ns#"
   xmlns:svg="http://www.w3.org/2000/svg"
   xmlns="http://www.w3.org/2000/svg"
   xmlns:xlink="http://www.w3.org/1999/xlink"
   xmlns:sodipodi="http://sodipodi.sourceforge.net/DTD/sodipodi-0.dtd"
   xmlns:inkscape="http://www.inkscape.org/namespaces/inkscape"
   width="170mm"
   height="55.24802mm"
   viewBox="0 0 169.99999 55.24802"
   version="1.1"
   id="svg8"
   inkscape:version="1.0.1 (3bc2e813f5, 2020-09-07)"
   sodipodi:docname="yolo.svg">
  <defs
     id="defs2">
    <marker
       style="overflow:visible"
       id="marker3625"
       refX="0"
       refY="0"
       orient="auto"
       inkscape:stockid="TriangleOutS"
       inkscape:isstock="true">
      <path
         transform="scale(0.2)"
         style="fill:#000000;fill-opacity:1;fill-rule:evenodd;stroke:#000000;stroke-width:1pt;stroke-opacity:1"
         d="M 5.77,0 -2.88,5 V -5 Z"
         id="path3623" />
    </marker>
    <marker
       style="overflow:visible"
       id="marker1233"
       refX="0"
       refY="0"
       orient="auto"
       inkscape:stockid="TriangleOutS"
       inkscape:isstock="true">
      <path
         transform="scale(0.2)"
         style="fill:#000000;fill-opacity:1;fill-rule:evenodd;stroke:#000000;stroke-width:1pt;stroke-opacity:1"
         d="M 5.77,0 -2.88,5 V -5 Z"
         id="path1231" />
    </marker>
    <marker
       style="overflow:visible"
       id="marker4945"
       refX="0"
       refY="0"
       orient="auto"
       inkscape:stockid="TriangleOutS"
       inkscape:isstock="true"
       inkscape:collect="always">
      <path
         transform="scale(0.2)"
         style="fill:#000000;fill-opacity:1;fill-rule:evenodd;stroke:#000000;stroke-width:1pt;stroke-opacity:1"
         d="M 5.77,0 -2.88,5 V -5 Z"
         id="path4943" />
    </marker>
    <marker
       style="overflow:visible"
       id="marker4474"
       refX="0"
       refY="0"
       orient="auto"
       inkscape:stockid="TriangleOutS"
       inkscape:isstock="true"
       inkscape:collect="always">
      <path
         transform="scale(0.2)"
         style="fill:#000000;fill-opacity:1;fill-rule:evenodd;stroke:#000000;stroke-width:1pt;stroke-opacity:1"
         d="M 5.77,0 -2.88,5 V -5 Z"
         id="path4472" />
    </marker>
    <inkscape:perspective
       sodipodi:type="inkscape:persp3d"
       inkscape:vp_x="394.99996 : 146.24803 : 1"
       inkscape:vp_y="6.1232329e-14 : -999.99991 : 0"
       inkscape:vp_z="145 : 141.24803 : 1"
       inkscape:persp3d-origin="104.99999 : 53.248016 : 1"
       id="perspective833" />
    <clipPath
       clipPathUnits="userSpaceOnUse"
       id="clipPath4269">
      <path
         style="vector-effect:none;fill:#ffffff;fill-opacity:0.258694;stroke:none;stroke-width:0.25;stroke-linecap:butt;stroke-linejoin:miter;stroke-miterlimit:4;stroke-dasharray:none;stroke-dashoffset:0;stroke-opacity:1"
         d="m 194.52823,125.49996 -2.72978,-7.5 v -12.5 l 2.72978,7.5 z"
         id="path4271"
         sodipodi:nodetypes="ccccc" />
    </clipPath>
    <clipPath
       clipPathUnits="userSpaceOnUse"
       id="clipPath4275">
      <path
         style="vector-effect:none;fill:#ffffff;fill-opacity:0.768024;stroke:none;stroke-width:0.25;stroke-linecap:butt;stroke-linejoin:miter;stroke-miterlimit:4;stroke-dasharray:none;stroke-dashoffset:0;stroke-opacity:1"
         d="m 248.21384,125.49996 -2.72978,-7.5 v -12.5 l 2.72978,7.5 z"
         id="path4277"
         sodipodi:nodetypes="ccccc" />
    </clipPath>
    <clipPath
       clipPathUnits="userSpaceOnUse"
       id="clipPath4281">
      <path
         style="vector-effect:none;fill:#ffffff;fill-opacity:0.768024;stroke:none;stroke-width:0.25;stroke-linecap:butt;stroke-linejoin:miter;stroke-miterlimit:4;stroke-dasharray:none;stroke-dashoffset:0;stroke-opacity:1"
         d="m 260.9528,110.49996 -2.72978,-7.5 v -12.5 l 2.72978,7.500001 z"
         id="path4283"
         sodipodi:nodetypes="ccccc" />
    </clipPath>
    <clipPath
       clipPathUnits="userSpaceOnUse"
       id="clipPath4287">
      <path
         style="vector-effect:none;fill:#ffffff;fill-opacity:0.768024;stroke:none;stroke-width:0.25;stroke-linecap:butt;stroke-linejoin:miter;stroke-miterlimit:4;stroke-dasharray:none;stroke-dashoffset:0;stroke-opacity:1"
         d="m 275.51161,122.99996 -2.72978,-7.5 v -12.5 l 2.72978,7.5 z"
         id="path4289"
         sodipodi:nodetypes="ccccc" />
    </clipPath>
    <marker
       style="overflow:visible"
       id="marker1609-9"
       refX="0"
       refY="0"
       orient="auto"
       inkscape:stockid="TriangleOutS"
       inkscape:isstock="true"
       inkscape:collect="always">
      <path
         transform="scale(0.2)"
         style="fill:#000000;fill-opacity:1;fill-rule:evenodd;stroke:#000000;stroke-width:1pt;stroke-opacity:1"
         d="M 5.77,0 -2.88,5 V -5 Z"
         id="path1607-0" />
    </marker>
  </defs>
  <sodipodi:namedview
     id="base"
     pagecolor="#ffffff"
     bordercolor="#666666"
     borderopacity="1.0"
     inkscape:pageopacity="0.0"
     inkscape:pageshadow="2"
     inkscape:zoom="2.6057724"
     inkscape:cx="286.38246"
     inkscape:cy="23.135462"
     inkscape:document-units="mm"
     inkscape:current-layer="layer1"
     inkscape:document-rotation="0"
     showgrid="true"
     inkscape:window-width="2560"
     inkscape:window-height="1376"
     inkscape:window-x="0"
     inkscape:window-y="27"
     inkscape:window-maximized="1"
     fit-margin-top="0"
     fit-margin-left="0"
     fit-margin-right="0"
     fit-margin-bottom="0">
    <inkscape:grid
       type="axonomgrid"
       id="grid949"
       spacingy="2.5"
       gridanglex="70"
       gridanglez="0"
       originx="-235.49218"
       originy="-227.37698" />
  </sodipodi:namedview>
  <metadata
     id="metadata5">
    <rdf:RDF>
      <cc:Work
         rdf:about="">
        <dc:format>image/svg+xml</dc:format>
        <dc:type
           rdf:resource="http://purl.org/dc/dcmitype/StillImage" />
        <dc:title></dc:title>
      </cc:Work>
    </rdf:RDF>
  </metadata>
  <g
     inkscape:label="Layer 1"
     inkscape:groupmode="layer"
     id="layer1"
     transform="translate(-134.2946,-107.87694)">
    <image
       sodipodi:absref="/home/raniere/Documents/qualifying-report/img/commons.wikimedia.org/x-ray-normal-hip-3d.png"
       xlink:href="commons.wikimedia.org/x-ray-normal-hip-3d.png"
       width="5.5880003"
       height="40.131996"
       preserveAspectRatio="none"
       id="image4110"
       x="135.38309"
       y="115.49996" />
    <path
       style="vector-effect:none;fill:#ffffff;fill-opacity:1;stroke:#000000;stroke-width:0.25;stroke-linecap:butt;stroke-linejoin:miter;stroke-miterlimit:4;stroke-dasharray:none;stroke-dashoffset:0;stroke-opacity:1"
       d="m 142.66247,155.49996 v -25 h -1.81985 v 25 z"
       id="path953"
       sodipodi:nodetypes="ccccc" />
    <path
       style="vector-effect:none;fill:none;fill-opacity:1;stroke:#000000;stroke-width:0.25;stroke-linecap:butt;stroke-linejoin:miter;stroke-miterlimit:4;stroke-dasharray:none;stroke-dashoffset:0;stroke-opacity:1"
       d="m 140.84263,155.49996 -5.45956,-15 v -25 l 5.45956,15 z"
       id="path955"
       sodipodi:nodetypes="ccccc" />
    <path
       style="vector-effect:none;fill:#ffffff;fill-opacity:1;stroke:#010000;stroke-width:0.25;stroke-linecap:butt;stroke-linejoin:miter;stroke-miterlimit:4;stroke-dasharray:none;stroke-dashoffset:0;stroke-opacity:1"
       d="m 140.84262,130.49996 h 1.81985 l -5.45956,-15 h -1.81985 z"
       id="path959"
       sodipodi:nodetypes="ccccc" />
    <path
       style="vector-effect:none;fill:none;fill-opacity:0;stroke:#000000;stroke-width:1;stroke-linecap:butt;stroke-linejoin:miter;stroke-miterlimit:4;stroke-dasharray:none;stroke-dashoffset:0;stroke-opacity:1;marker-end:url(#marker1609-9)"
       d="m 144.48233,142.99996 h 3.4"
       id="path1277-6"
       sodipodi:nodetypes="cc" />
    <path
       style="vector-effect:none;fill:none;fill-opacity:0;stroke:#000000;stroke-width:1;stroke-linecap:butt;stroke-linejoin:miter;stroke-miterlimit:4;stroke-dasharray:none;stroke-dashoffset:0;stroke-opacity:1;marker-end:url(#marker4474)"
       d="m 290.98032,142.99996 h 3.4"
       id="path4470"
       sodipodi:nodetypes="cc" />
    <path
       style="vector-effect:none;fill:none;fill-opacity:0;stroke:#000000;stroke-width:1;stroke-linecap:butt;stroke-linejoin:miter;stroke-miterlimit:4;stroke-dasharray:none;stroke-dashoffset:0;stroke-opacity:1;marker-end:url(#marker4945)"
       d="m 177.23962,142.99996 h 3.4"
       id="path4941"
       sodipodi:nodetypes="cc" />
    <image
       sodipodi:absref="/home/raniere/Documents/qualifying-report/img/commons.wikimedia.org/x-ray-normal-hip-3d.png"
       xlink:href="commons.wikimedia.org/x-ray-normal-hip-3d.png"
       width="5.5880003"
       height="40.131996"
       preserveAspectRatio="none"
       id="image5013"
       x="296.43991"
       y="117.99996" />
    <path
       style="vector-effect:none;fill:#ffffff;fill-opacity:1;stroke:#000000;stroke-width:0.25;stroke-linecap:butt;stroke-linejoin:miter;stroke-miterlimit:4;stroke-dasharray:none;stroke-dashoffset:0;stroke-opacity:1"
       d="m 303.71928,157.99996 v -25 h -1.81985 v 25 z"
       id="path5015"
       sodipodi:nodetypes="ccccc" />
    <path
       style="vector-effect:none;fill:none;fill-opacity:1;stroke:#000000;stroke-width:0.25;stroke-linecap:butt;stroke-linejoin:miter;stroke-miterlimit:4;stroke-dasharray:none;stroke-dashoffset:0;stroke-opacity:1"
       d="m 301.89944,157.99996 -5.45956,-15 v -25 l 5.45956,15 z"
       id="path5017"
       sodipodi:nodetypes="ccccc" />
    <path
       style="vector-effect:none;fill:#ffffff;fill-opacity:1;stroke:#010000;stroke-width:0.25;stroke-linecap:butt;stroke-linejoin:miter;stroke-miterlimit:4;stroke-dasharray:none;stroke-dashoffset:0;stroke-opacity:1"
       d="m 301.89943,132.99996 h 1.81985 l -5.45956,-15 h -1.81985 z"
       id="path5019"
       sodipodi:nodetypes="ccccc" />
    <path
       style="vector-effect:none;fill:none;fill-opacity:1;stroke:#e6984c;stroke-width:0.25;stroke-linecap:butt;stroke-linejoin:miter;stroke-miterlimit:4;stroke-dasharray:none;stroke-dashoffset:0;stroke-opacity:1"
       d="m 299.16967,137.99996 -2.72979,-7.5 v -12.5 l 2.72979,7.5 z"
       id="path5063"
       sodipodi:nodetypes="ccccc" />
    <text
       xml:space="preserve"
       style="font-style:normal;font-variant:normal;font-weight:normal;font-stretch:normal;font-size:4.23333px;line-height:1.25;font-family:STIX;-inkscape-font-specification:STIX;letter-spacing:0px;word-spacing:0px;fill:#000000;fill-opacity:1;stroke:none;stroke-width:0.264583"
       x="163.13582"
       y="110.73867"
       id="text5109"><tspan
         sodipodi:role="line"
         x="163.13582"
         y="110.73867"
         style="font-style:normal;font-variant:normal;font-weight:normal;font-stretch:normal;font-size:4.23333px;font-family:STIX;-inkscape-font-specification:STIX;text-align:center;text-anchor:middle;stroke-width:0.264583"
         id="tspan5107">(a)</tspan></text>
    <g
       id="g3866">
      <g
         id="g1657"
         transform="translate(73.703973)">
        <image
           sodipodi:absref="/home/raniere/Documents/qualifying-report/img/commons.wikimedia.org/x-ray-normal-hip-3d.png"
           xlink:href="commons.wikimedia.org/x-ray-normal-hip-3d.png"
           transform="translate(-101.91166,25)"
           width="5.5880003"
           height="40.131996"
           preserveAspectRatio="none"
           id="image1187"
           x="272.7818"
           y="90.499962"
           clip-path="url(#clipPath4287)" />
        <path
           style="vector-effect:none;fill:#ffffff;fill-opacity:1;stroke:#000000;stroke-width:0.25;stroke-linecap:butt;stroke-linejoin:miter;stroke-miterlimit:4;stroke-dasharray:none;stroke-dashoffset:0;stroke-opacity:1"
           d="m 175.41979,147.99996 v -12.5 h -1.81985 v 12.5 z"
           id="path1189"
           sodipodi:nodetypes="ccccc" />
        <path
           style="vector-effect:none;fill:none;fill-opacity:1;stroke:#000000;stroke-width:0.25;stroke-linecap:butt;stroke-linejoin:miter;stroke-miterlimit:4;stroke-dasharray:none;stroke-dashoffset:0;stroke-opacity:1"
           d="m 173.59995,147.99996 -2.72978,-7.5 v -12.5 l 2.72978,7.5 z"
           id="path1191"
           sodipodi:nodetypes="ccccc" />
        <path
           style="vector-effect:none;fill:#ffffff;fill-opacity:1;stroke:#010000;stroke-width:0.25;stroke-linecap:butt;stroke-linejoin:miter;stroke-miterlimit:4;stroke-dasharray:none;stroke-dashoffset:0;stroke-opacity:1"
           d="m 173.59994,135.49996 h 1.81985 l -2.72978,-7.5 h -1.81985 z"
           id="path1193"
           sodipodi:nodetypes="ccccc" />
        <image
           sodipodi:absref="/home/raniere/Documents/qualifying-report/img/commons.wikimedia.org/x-ray-normal-hip-3d.png"
           xlink:href="commons.wikimedia.org/x-ray-normal-hip-3d.png"
           transform="translate(-58.235229,37.5)"
           width="5.5880003"
           height="40.131996"
           preserveAspectRatio="none"
           id="image1197"
           x="242.75427"
           y="85.499962"
           clip-path="url(#clipPath4275)" />
        <path
           style="vector-effect:none;fill:#ffffff;fill-opacity:1;stroke:#000000;stroke-width:0.25;stroke-linecap:butt;stroke-linejoin:miter;stroke-miterlimit:4;stroke-dasharray:none;stroke-dashoffset:0;stroke-opacity:1"
           d="m 191.79845,162.99996 v -12.5 h -1.81985 v 12.5 z"
           id="path1199"
           sodipodi:nodetypes="ccccc" />
        <path
           style="vector-effect:none;fill:none;fill-opacity:1;stroke:#000000;stroke-width:0.25;stroke-linecap:butt;stroke-linejoin:miter;stroke-miterlimit:4;stroke-dasharray:none;stroke-dashoffset:0;stroke-opacity:1"
           d="m 189.97861,162.99996 -2.72978,-7.5 v -12.5 l 2.72978,7.5 z"
           id="path1201"
           sodipodi:nodetypes="ccccc" />
        <path
           style="vector-effect:none;fill:#ffffff;fill-opacity:1;stroke:#010000;stroke-width:0.25;stroke-linecap:butt;stroke-linejoin:miter;stroke-miterlimit:4;stroke-dasharray:none;stroke-dashoffset:0;stroke-opacity:1"
           d="m 189.9786,150.49996 h 1.81985 l -2.72978,-7.5 h -1.81985 z"
           id="path1203"
           sodipodi:nodetypes="ccccc" />
        <image
           sodipodi:absref="/home/raniere/Documents/qualifying-report/img/commons.wikimedia.org/x-ray-normal-hip-3d.png"
           xlink:href="commons.wikimedia.org/x-ray-normal-hip-3d.png"
           transform="translate(-73.703966,22.5)"
           width="5.5880003"
           height="40.131996"
           preserveAspectRatio="none"
           id="image1207"
           x="258.22299"
           y="90.499962"
           clip-path="url(#clipPath4281)" />
        <path
           style="vector-effect:none;fill:#ffffff;fill-opacity:1;stroke:#000000;stroke-width:0.25;stroke-linecap:butt;stroke-linejoin:miter;stroke-miterlimit:4;stroke-dasharray:none;stroke-dashoffset:0;stroke-opacity:1"
           d="m 189.06867,132.99996 v -12.5 h -1.81985 v 12.5 z"
           id="path1209"
           sodipodi:nodetypes="ccccc" />
        <path
           style="vector-effect:none;fill:none;fill-opacity:1;stroke:#000000;stroke-width:0.25;stroke-linecap:butt;stroke-linejoin:miter;stroke-miterlimit:4;stroke-dasharray:none;stroke-dashoffset:0;stroke-opacity:1"
           d="m 187.24883,132.99996 -2.72978,-7.5 v -12.5 l 2.72978,7.5 z"
           id="path1211"
           sodipodi:nodetypes="ccccc" />
        <path
           style="vector-effect:none;fill:#ffffff;fill-opacity:1;stroke:#010000;stroke-width:0.25;stroke-linecap:butt;stroke-linejoin:miter;stroke-miterlimit:4;stroke-dasharray:none;stroke-dashoffset:0;stroke-opacity:1"
           d="m 187.24882,120.49996 h 1.81985 l -2.72978,-7.5 h -1.81985 z"
           id="path1213"
           sodipodi:nodetypes="ccccc" />
        <image
           sodipodi:absref="/home/raniere/Documents/qualifying-report/img/commons.wikimedia.org/x-ray-normal-hip-3d.png"
           xlink:href="commons.wikimedia.org/x-ray-normal-hip-3d.png"
           transform="translate(9.0992644,22.5)"
           width="5.5880003"
           height="40.131996"
           preserveAspectRatio="none"
           id="image1217"
           x="189.06866"
           y="97.999962"
           clip-path="url(#clipPath4269)" />
        <path
           style="vector-effect:none;fill:#ffffff;fill-opacity:1;stroke:#000000;stroke-width:0.25;stroke-linecap:butt;stroke-linejoin:miter;stroke-miterlimit:4;stroke-dasharray:none;stroke-dashoffset:0;stroke-opacity:1"
           d="m 205.44733,147.99996 v -12.5 h -1.81985 v 12.5 z"
           id="path1219"
           sodipodi:nodetypes="ccccc" />
        <path
           style="vector-effect:none;fill:none;fill-opacity:1;stroke:#000000;stroke-width:0.25;stroke-linecap:butt;stroke-linejoin:miter;stroke-miterlimit:4;stroke-dasharray:none;stroke-dashoffset:0;stroke-opacity:1"
           d="m 203.62749,147.99996 -2.72978,-7.5 v -12.5 l 2.72978,7.5 z"
           id="path1221"
           sodipodi:nodetypes="ccccc" />
        <path
           style="vector-effect:none;fill:#ffffff;fill-opacity:1;stroke:#010000;stroke-width:0.25;stroke-linecap:butt;stroke-linejoin:miter;stroke-miterlimit:4;stroke-dasharray:none;stroke-dashoffset:0;stroke-opacity:1"
           d="m 203.62748,135.49996 h 1.81985 l -2.72978,-7.5 h -1.81985 z"
           id="path1223"
           sodipodi:nodetypes="ccccc" />
        <path
           style="vector-effect:none;fill:#ffffff;fill-opacity:1;stroke:#000000;stroke-width:0.25;stroke-linecap:butt;stroke-linejoin:miter;stroke-miterlimit:4;stroke-dasharray:none;stroke-dashoffset:0;stroke-opacity:1"
           d="m 180.87935,147.99996 v -12.5 h -5.45955 v 12.5 z"
           id="path1337"
           sodipodi:nodetypes="ccccc" />
        <path
           style="vector-effect:none;fill:#ffffff;fill-opacity:1;stroke:#010000;stroke-width:0.25;stroke-linecap:butt;stroke-linejoin:miter;stroke-miterlimit:4;stroke-dasharray:none;stroke-dashoffset:0;stroke-opacity:1"
           d="m 175.4198,135.49996 h 5.45955 l -2.72978,-7.5 h -5.45955 z"
           id="path1339"
           sodipodi:nodetypes="ccccc" />
        <path
           style="vector-effect:none;fill:#ffffff;fill-opacity:1;stroke:#000000;stroke-width:0.25;stroke-linecap:butt;stroke-linejoin:miter;stroke-miterlimit:4;stroke-dasharray:none;stroke-dashoffset:0;stroke-opacity:1"
           d="m 186.3389,147.99996 v -12.5 h -5.45955 v 12.5 z"
           id="path1341"
           sodipodi:nodetypes="ccccc" />
        <path
           style="vector-effect:none;fill:#ffffff;fill-opacity:1;stroke:#010000;stroke-width:0.25;stroke-linecap:butt;stroke-linejoin:miter;stroke-miterlimit:4;stroke-dasharray:none;stroke-dashoffset:0;stroke-opacity:1"
           d="m 180.87935,135.49996 h 5.45955 l -2.72978,-7.5 h -5.45955 z"
           id="path1343"
           sodipodi:nodetypes="ccccc" />
        <text
           xml:space="preserve"
           style="font-style:normal;font-variant:normal;font-weight:normal;font-stretch:normal;font-size:4.23333px;line-height:1.25;font-family:STIX;-inkscape-font-specification:STIX;letter-spacing:0px;word-spacing:0px;fill:#000000;fill-opacity:1;stroke:none;stroke-width:0.264583"
           x="178.25943"
           y="142.72786"
           id="text1347"><tspan
             sodipodi:role="line"
             x="178.32152"
             y="142.72786"
             style="font-style:normal;font-variant:normal;font-weight:normal;font-stretch:normal;font-size:4.23333px;font-family:STIX;-inkscape-font-specification:STIX;text-align:center;text-anchor:middle;stroke-width:0.264583"
             id="tspan1345">B<tspan
   style="font-size:65%;baseline-shift:super"
   id="tspan1455">1</tspan><tspan
   style="font-size:65%;baseline-shift:sub"
   id="tspan1349"
   dx="-1.5">1</tspan></tspan></text>
        <text
           xml:space="preserve"
           style="font-style:normal;font-variant:normal;font-weight:normal;font-stretch:normal;font-size:4.23333px;line-height:1.25;font-family:STIX;-inkscape-font-specification:STIX;letter-spacing:0px;word-spacing:0px;fill:#000000;fill-opacity:1;stroke:none;stroke-width:0.264583"
           x="183.71898"
           y="142.72786"
           id="text1355"><tspan
             sodipodi:role="line"
             x="183.78107"
             y="142.72786"
             style="font-style:normal;font-variant:normal;font-weight:normal;font-stretch:normal;font-size:4.23333px;font-family:STIX;-inkscape-font-specification:STIX;text-align:center;text-anchor:middle;stroke-width:0.264583"
             id="tspan1353">B<tspan
   style="font-size:65%;baseline-shift:super"
   id="tspan1457">1</tspan><tspan
   style="font-size:65%;baseline-shift:sub"
   id="tspan1357"
   dx="-1.5">2</tspan></tspan></text>
        <path
           style="vector-effect:none;fill:#ffffff;fill-opacity:1;stroke:#000000;stroke-width:0.25;stroke-linecap:butt;stroke-linejoin:miter;stroke-miterlimit:4;stroke-dasharray:none;stroke-dashoffset:0;stroke-opacity:1"
           d="m 194.52824,132.99996 v -12.5 h -5.45955 v 12.5 z"
           id="path1395"
           sodipodi:nodetypes="ccccc" />
        <path
           style="vector-effect:none;fill:#ffffff;fill-opacity:1;stroke:#010000;stroke-width:0.25;stroke-linecap:butt;stroke-linejoin:miter;stroke-miterlimit:4;stroke-dasharray:none;stroke-dashoffset:0;stroke-opacity:1"
           d="m 189.06869,120.49996 h 5.45955 l -2.72978,-7.5 h -5.45955 z"
           id="path1397"
           sodipodi:nodetypes="ccccc" />
        <path
           style="vector-effect:none;fill:#ffffff;fill-opacity:1;stroke:#000000;stroke-width:0.25;stroke-linecap:butt;stroke-linejoin:miter;stroke-miterlimit:4;stroke-dasharray:none;stroke-dashoffset:0;stroke-opacity:1"
           d="m 199.98779,132.99996 v -12.5 h -5.45955 v 12.5 z"
           id="path1399"
           sodipodi:nodetypes="ccccc" />
        <path
           style="vector-effect:none;fill:#ffffff;fill-opacity:1;stroke:#010000;stroke-width:0.25;stroke-linecap:butt;stroke-linejoin:miter;stroke-miterlimit:4;stroke-dasharray:none;stroke-dashoffset:0;stroke-opacity:1"
           d="m 194.52824,120.49996 h 5.45955 l -2.72978,-7.5 h -5.45955 z"
           id="path1401"
           sodipodi:nodetypes="ccccc" />
        <text
           xml:space="preserve"
           style="font-style:normal;font-variant:normal;font-weight:normal;font-stretch:normal;font-size:4.23333px;line-height:1.25;font-family:STIX;-inkscape-font-specification:STIX;letter-spacing:0px;word-spacing:0px;fill:#000000;fill-opacity:1;stroke:none;stroke-width:0.264583"
           x="191.90831"
           y="127.72786"
           id="text1407"><tspan
             sodipodi:role="line"
             x="191.9704"
             y="127.72786"
             style="font-style:normal;font-variant:normal;font-weight:normal;font-stretch:normal;font-size:4.23333px;font-family:STIX;-inkscape-font-specification:STIX;text-align:center;text-anchor:middle;stroke-width:0.264583"
             id="tspan1405">B<tspan
   style="font-size:65%;baseline-shift:super"
   id="tspan1459">2</tspan><tspan
   style="font-size:65%;baseline-shift:sub"
   id="tspan1403"
   dx="-1.5">1</tspan></tspan></text>
        <text
           xml:space="preserve"
           style="font-style:normal;font-variant:normal;font-weight:normal;font-stretch:normal;font-size:4.23333px;line-height:1.25;font-family:STIX;-inkscape-font-specification:STIX;letter-spacing:0px;word-spacing:0px;fill:#000000;fill-opacity:1;stroke:none;stroke-width:0.264583"
           x="197.36786"
           y="127.72786"
           id="text1413"><tspan
             sodipodi:role="line"
             x="197.42995"
             y="127.72786"
             style="font-style:normal;font-variant:normal;font-weight:normal;font-stretch:normal;font-size:4.23333px;font-family:STIX;-inkscape-font-specification:STIX;text-align:center;text-anchor:middle;stroke-width:0.264583"
             id="tspan1411">B<tspan
   style="font-size:65%;baseline-shift:super"
   id="tspan1461">2</tspan><tspan
   style="font-size:65%;baseline-shift:sub"
   id="tspan1409"
   dx="-1.5">2</tspan></tspan></text>
        <path
           style="vector-effect:none;fill:#ffffff;fill-opacity:1;stroke:#000000;stroke-width:0.25;stroke-linecap:butt;stroke-linejoin:miter;stroke-miterlimit:4;stroke-dasharray:none;stroke-dashoffset:0;stroke-opacity:1"
           d="m 197.25801,162.99996 v -12.5 h -5.45955 v 12.5 z"
           id="path1415"
           sodipodi:nodetypes="ccccc" />
        <path
           style="vector-effect:none;fill:#ffffff;fill-opacity:1;stroke:#010000;stroke-width:0.25;stroke-linecap:butt;stroke-linejoin:miter;stroke-miterlimit:4;stroke-dasharray:none;stroke-dashoffset:0;stroke-opacity:1"
           d="m 191.79846,150.49996 h 5.45955 l -2.72978,-7.5 h -5.45955 z"
           id="path1417"
           sodipodi:nodetypes="ccccc" />
        <path
           style="vector-effect:none;fill:#ffffff;fill-opacity:1;stroke:#000000;stroke-width:0.25;stroke-linecap:butt;stroke-linejoin:miter;stroke-miterlimit:4;stroke-dasharray:none;stroke-dashoffset:0;stroke-opacity:1"
           d="m 202.71756,162.99996 v -12.5 h -5.45955 v 12.5 z"
           id="path1419"
           sodipodi:nodetypes="ccccc" />
        <path
           style="vector-effect:none;fill:#ffffff;fill-opacity:1;stroke:#010000;stroke-width:0.25;stroke-linecap:butt;stroke-linejoin:miter;stroke-miterlimit:4;stroke-dasharray:none;stroke-dashoffset:0;stroke-opacity:1"
           d="m 197.25801,150.49996 h 5.45955 l -2.72978,-7.5 h -5.45955 z"
           id="path1421"
           sodipodi:nodetypes="ccccc" />
        <text
           xml:space="preserve"
           style="font-style:normal;font-variant:normal;font-weight:normal;font-stretch:normal;font-size:4.23333px;line-height:1.25;font-family:STIX;-inkscape-font-specification:STIX;letter-spacing:0px;word-spacing:0px;fill:#000000;fill-opacity:1;stroke:none;stroke-width:0.264583"
           x="194.63808"
           y="157.72786"
           id="text1427"><tspan
             sodipodi:role="line"
             x="194.70016"
             y="157.72786"
             style="font-style:normal;font-variant:normal;font-weight:normal;font-stretch:normal;font-size:4.23333px;font-family:STIX;-inkscape-font-specification:STIX;text-align:center;text-anchor:middle;stroke-width:0.264583"
             id="tspan1425">B<tspan
   style="font-size:65%;baseline-shift:super"
   id="tspan1463">3</tspan><tspan
   style="font-size:65%;baseline-shift:sub"
   id="tspan1423"
   dx="-1.5">1</tspan></tspan></text>
        <text
           xml:space="preserve"
           style="font-style:normal;font-variant:normal;font-weight:normal;font-stretch:normal;font-size:4.23333px;line-height:1.25;font-family:STIX;-inkscape-font-specification:STIX;letter-spacing:0px;word-spacing:0px;fill:#000000;fill-opacity:1;stroke:none;stroke-width:0.264583"
           x="200.09763"
           y="157.72786"
           id="text1433"><tspan
             sodipodi:role="line"
             x="200.15971"
             y="157.72786"
             style="font-style:normal;font-variant:normal;font-weight:normal;font-stretch:normal;font-size:4.23333px;font-family:STIX;-inkscape-font-specification:STIX;text-align:center;text-anchor:middle;stroke-width:0.264583"
             id="tspan1431">B<tspan
   style="font-size:65%;baseline-shift:super"
   id="tspan1465">3</tspan><tspan
   style="font-size:65%;baseline-shift:sub"
   id="tspan1429"
   dx="-1.5">2</tspan></tspan></text>
        <path
           style="vector-effect:none;fill:#ffffff;fill-opacity:1;stroke:#000000;stroke-width:0.25;stroke-linecap:butt;stroke-linejoin:miter;stroke-miterlimit:4;stroke-dasharray:none;stroke-dashoffset:0;stroke-opacity:1"
           d="m 210.9069,147.99996 v -12.5 h -5.45955 v 12.5 z"
           id="path1435"
           sodipodi:nodetypes="ccccc" />
        <path
           style="vector-effect:none;fill:#ffffff;fill-opacity:1;stroke:#010000;stroke-width:0.25;stroke-linecap:butt;stroke-linejoin:miter;stroke-miterlimit:4;stroke-dasharray:none;stroke-dashoffset:0;stroke-opacity:1"
           d="m 205.44735,135.49996 h 5.45955 l -2.72978,-7.5 h -5.45955 z"
           id="path1437"
           sodipodi:nodetypes="ccccc" />
        <path
           style="vector-effect:none;fill:#ffffff;fill-opacity:1;stroke:#000000;stroke-width:0.25;stroke-linecap:butt;stroke-linejoin:miter;stroke-miterlimit:4;stroke-dasharray:none;stroke-dashoffset:0;stroke-opacity:1"
           d="m 216.36645,147.99996 v -12.5 h -5.45955 v 12.5 z"
           id="path1439"
           sodipodi:nodetypes="ccccc" />
        <path
           style="vector-effect:none;fill:#ffffff;fill-opacity:1;stroke:#010000;stroke-width:0.25;stroke-linecap:butt;stroke-linejoin:miter;stroke-miterlimit:4;stroke-dasharray:none;stroke-dashoffset:0;stroke-opacity:1"
           d="m 210.9069,135.49996 h 5.45955 l -2.72978,-7.5 h -5.45955 z"
           id="path1441"
           sodipodi:nodetypes="ccccc" />
        <text
           xml:space="preserve"
           style="font-style:normal;font-variant:normal;font-weight:normal;font-stretch:normal;font-size:4.23333px;line-height:1.25;font-family:STIX;-inkscape-font-specification:STIX;letter-spacing:0px;word-spacing:0px;fill:#000000;fill-opacity:1;stroke:none;stroke-width:0.264583"
           x="208.28696"
           y="142.72786"
           id="text1447"><tspan
             sodipodi:role="line"
             x="208.34904"
             y="142.72786"
             style="font-style:normal;font-variant:normal;font-weight:normal;font-stretch:normal;font-size:4.23333px;font-family:STIX;-inkscape-font-specification:STIX;text-align:center;text-anchor:middle;stroke-width:0.264583"
             id="tspan1445">B<tspan
   style="font-size:65%;baseline-shift:super"
   id="tspan1467">4</tspan><tspan
   style="font-size:65%;baseline-shift:sub"
   id="tspan1443"
   dx="-1.5">1</tspan></tspan></text>
        <text
           xml:space="preserve"
           style="font-style:normal;font-variant:normal;font-weight:normal;font-stretch:normal;font-size:4.23333px;line-height:1.25;font-family:STIX;-inkscape-font-specification:STIX;letter-spacing:0px;word-spacing:0px;fill:#000000;fill-opacity:1;stroke:none;stroke-width:0.264583"
           x="213.74651"
           y="142.72786"
           id="text1453"><tspan
             sodipodi:role="line"
             x="213.80859"
             y="142.72786"
             style="font-style:normal;font-variant:normal;font-weight:normal;font-stretch:normal;font-size:4.23333px;font-family:STIX;-inkscape-font-specification:STIX;text-align:center;text-anchor:middle;stroke-width:0.264583"
             id="tspan1451">B<tspan
   style="font-size:65%;baseline-shift:super"
   id="tspan1469">4</tspan><tspan
   style="font-size:65%;baseline-shift:sub"
   id="tspan1449"
   dx="-1.5">2</tspan></tspan></text>
      </g>
    </g>
    <g
       id="g1696"
       transform="translate(-75.5238)">
      <path
         style="vector-effect:none;fill:#ffffff;fill-opacity:1;stroke:#000000;stroke-width:0.25;stroke-linecap:butt;stroke-linejoin:miter;stroke-miterlimit:4;stroke-dasharray:none;stroke-dashoffset:0;stroke-opacity:1"
         d="m 250.94361,155.49996 v -25 h -19.10843 v 25 z"
         id="path4905"
         sodipodi:nodetypes="ccccc" />
      <path
         style="vector-effect:none;fill:none;fill-opacity:1;stroke:#000000;stroke-width:0.25;stroke-linecap:butt;stroke-linejoin:miter;stroke-miterlimit:4;stroke-dasharray:none;stroke-dashoffset:0;stroke-opacity:1"
         d="m 231.83519,155.49996 -5.45956,-15 v -25 l 5.45956,15 z"
         id="path4907"
         sodipodi:nodetypes="ccccc" />
      <path
         style="vector-effect:none;fill:#ffffff;fill-opacity:1;stroke:#010000;stroke-width:0.25;stroke-linecap:butt;stroke-linejoin:miter;stroke-miterlimit:4;stroke-dasharray:none;stroke-dashoffset:0;stroke-opacity:1"
         d="m 231.83518,130.49996 h 19.10843 l -5.45956,-15 h -19.10843 z"
         id="path4909"
         sodipodi:nodetypes="ccccc" />
      <text
         xml:space="preserve"
         style="font-style:normal;font-weight:normal;font-size:4.23333px;line-height:1.25;font-family:sans-serif;letter-spacing:0px;word-spacing:0px;fill:#000000;fill-opacity:1;stroke:none;stroke-width:0.264583"
         x="234.30338"
         y="137.88503"
         id="text1736-6-5"><tspan
           sodipodi:role="line"
           id="tspan1734-4-9"
           x="234.30338"
           y="137.88503"
           style="font-style:normal;font-variant:normal;font-weight:normal;font-stretch:normal;font-size:4.23333px;font-family:STIX;-inkscape-font-specification:STIX;stroke-width:0.264583">Weights</tspan></text>
      <text
         xml:space="preserve"
         style="font-style:normal;font-weight:normal;font-size:4.23333px;line-height:1.25;font-family:sans-serif;letter-spacing:0px;word-spacing:0px;fill:#000000;fill-opacity:1;stroke:none;stroke-width:0.264583"
         x="239.04028"
         y="143.59274"
         id="text1740-3-3"><tspan
           sodipodi:role="line"
           id="tspan1738-0-4"
           x="239.04028"
           y="143.59274"
           style="font-style:normal;font-variant:normal;font-weight:normal;font-stretch:normal;font-size:4.23333px;font-family:STIX;-inkscape-font-specification:STIX;stroke-width:0.264583">w<tspan
   style="font-size:2.75167px;baseline-shift:super;stroke-width:0.264583"
   id="tspan3426-1">*</tspan><tspan
   style="font-size:2.75167px;baseline-shift:sub;stroke-width:0.264583"
   id="tspan1912-2"
   dx="-1.5">1</tspan></tspan></text>
      <text
         xml:space="preserve"
         style="font-style:normal;font-weight:normal;font-size:4.23333px;line-height:1.25;font-family:sans-serif;letter-spacing:0px;word-spacing:0px;fill:#000000;fill-opacity:1;stroke:none;stroke-width:0.264583"
         x="238.93021"
         y="150.4296"
         id="text1744-3-5"><tspan
           sodipodi:role="line"
           id="tspan1742-0-0"
           x="238.93021"
           y="150.4296"
           style="font-style:normal;font-variant:normal;font-weight:normal;font-stretch:normal;font-size:4.23333px;font-family:STIX;-inkscape-font-specification:STIX;stroke-width:0.264583">w<tspan
   style="font-size:2.75167px;baseline-shift:super;stroke-width:0.264583"
   id="tspan3428-8">*</tspan><tspan
   style="font-size:2.75167px;baseline-shift:sub;stroke-width:0.264583"
   id="tspan1914-4"
   dx="-1.5">2</tspan></tspan></text>
      <rect
         style="fill:none;fill-opacity:0.4;stroke:#000000;stroke-width:0.25;stroke-linecap:butt;stroke-linejoin:round;stroke-miterlimit:4;stroke-dasharray:none;stroke-opacity:1"
         id="rect1864-5-5"
         width="15.468731"
         height="20.000006"
         x="233.65503"
         y="132.99995" />
    </g>
    <text
       xml:space="preserve"
       style="font-style:normal;font-variant:normal;font-weight:normal;font-stretch:normal;font-size:4.23333px;line-height:1.25;font-family:STIX;-inkscape-font-specification:STIX;letter-spacing:0px;word-spacing:0px;fill:#000000;fill-opacity:1;stroke:none;stroke-width:0.264583"
       x="267.32227"
       y="110.7683"
       id="text1591"><tspan
         sodipodi:role="line"
         x="267.32227"
         y="110.7683"
         style="font-style:normal;font-variant:normal;font-weight:normal;font-stretch:normal;font-size:4.23333px;font-family:STIX;-inkscape-font-specification:STIX;text-align:center;text-anchor:middle;stroke-width:0.264583"
         id="tspan1589">(c)</tspan></text>
    <g
       id="g3799">
      <path
         style="vector-effect:none;fill:#ffffff;fill-opacity:1;stroke:#000000;stroke-width:0.25;stroke-linecap:butt;stroke-linejoin:miter;stroke-miterlimit:4;stroke-dasharray:none;stroke-dashoffset:0;stroke-opacity:1"
         d="m 188.15876,147.99996 v -12.5 h -1.81985 v 12.5 z"
         id="path3419"
         sodipodi:nodetypes="ccccc" />
      <path
         style="vector-effect:none;fill:none;fill-opacity:1;stroke:#000000;stroke-width:0.25;stroke-linecap:butt;stroke-linejoin:miter;stroke-miterlimit:4;stroke-dasharray:none;stroke-dashoffset:0;stroke-opacity:1"
         d="m 186.33892,147.99996 -2.72978,-7.5 v -12.5 l 2.72978,7.5 z"
         id="path3421"
         sodipodi:nodetypes="ccccc" />
      <path
         style="vector-effect:none;fill:#ffffff;fill-opacity:1;stroke:#010000;stroke-width:0.25;stroke-linecap:butt;stroke-linejoin:miter;stroke-miterlimit:4;stroke-dasharray:none;stroke-dashoffset:0;stroke-opacity:1"
         d="m 186.33891,135.49996 h 1.81985 l -2.72978,-7.5 h -1.81985 z"
         id="path3423"
         sodipodi:nodetypes="ccccc" />
      <path
         style="vector-effect:none;fill:#ffffff;fill-opacity:1;stroke:#000000;stroke-width:0.25;stroke-linecap:butt;stroke-linejoin:miter;stroke-miterlimit:4;stroke-dasharray:none;stroke-dashoffset:0;stroke-opacity:1"
         d="m 213.63668,147.99996 v -12.5 h -1.81985 v 12.5 z"
         id="path3427"
         sodipodi:nodetypes="ccccc" />
      <path
         style="vector-effect:none;fill:none;fill-opacity:1;stroke:#000000;stroke-width:0.25;stroke-linecap:butt;stroke-linejoin:miter;stroke-miterlimit:4;stroke-dasharray:none;stroke-dashoffset:0;stroke-opacity:1"
         d="m 211.81684,147.99996 -2.72978,-7.5 v -12.5 l 2.72978,7.5 z"
         id="path3429"
         sodipodi:nodetypes="ccccc" />
      <path
         style="vector-effect:none;fill:#ffffff;fill-opacity:1;stroke:#010000;stroke-width:0.25;stroke-linecap:butt;stroke-linejoin:miter;stroke-miterlimit:4;stroke-dasharray:none;stroke-dashoffset:0;stroke-opacity:1"
         d="m 211.81683,135.49996 h 1.81985 l -2.72978,-7.5 h -1.81985 z"
         id="path3431"
         sodipodi:nodetypes="ccccc" />
      <path
         style="vector-effect:none;fill:#ffffff;fill-opacity:1;stroke:#000000;stroke-width:0.25;stroke-linecap:butt;stroke-linejoin:miter;stroke-miterlimit:4;stroke-dasharray:none;stroke-dashoffset:0;stroke-opacity:1"
         d="m 200.89772,147.99996 v -12.5 h -1.81985 v 12.5 z"
         id="path3435"
         sodipodi:nodetypes="ccccc" />
      <path
         style="vector-effect:none;fill:none;fill-opacity:1;stroke:#000000;stroke-width:0.25;stroke-linecap:butt;stroke-linejoin:miter;stroke-miterlimit:4;stroke-dasharray:none;stroke-dashoffset:0;stroke-opacity:1"
         d="m 199.07788,147.99996 -2.72978,-7.5 v -12.5 l 2.72978,7.5 z"
         id="path3437"
         sodipodi:nodetypes="ccccc" />
      <path
         style="vector-effect:none;fill:#ffffff;fill-opacity:1;stroke:#010000;stroke-width:0.25;stroke-linecap:butt;stroke-linejoin:miter;stroke-miterlimit:4;stroke-dasharray:none;stroke-dashoffset:0;stroke-opacity:1"
         d="m 199.07787,135.49996 h 1.81985 l -2.72978,-7.5 h -1.81985 z"
         id="path3439"
         sodipodi:nodetypes="ccccc" />
      <path
         style="vector-effect:none;fill:#ffffff;fill-opacity:1;stroke:#000000;stroke-width:0.25;stroke-linecap:butt;stroke-linejoin:miter;stroke-miterlimit:4;stroke-dasharray:none;stroke-dashoffset:0;stroke-opacity:1"
         d="m 226.37563,147.99996 v -12.5 h -1.81985 v 12.5 z"
         id="path3443"
         sodipodi:nodetypes="ccccc" />
      <path
         style="vector-effect:none;fill:none;fill-opacity:1;stroke:#000000;stroke-width:0.25;stroke-linecap:butt;stroke-linejoin:miter;stroke-miterlimit:4;stroke-dasharray:none;stroke-dashoffset:0;stroke-opacity:1"
         d="m 224.55579,147.99996 -2.72978,-7.5 v -12.5 l 2.72978,7.5 z"
         id="path3445"
         sodipodi:nodetypes="ccccc" />
      <path
         style="vector-effect:none;fill:#ffffff;fill-opacity:1;stroke:#010000;stroke-width:0.25;stroke-linecap:butt;stroke-linejoin:miter;stroke-miterlimit:4;stroke-dasharray:none;stroke-dashoffset:0;stroke-opacity:1"
         d="m 224.55578,135.49996 h 1.81985 l -2.72978,-7.5 H 221.826 Z"
         id="path3447"
         sodipodi:nodetypes="ccccc" />
      <path
         style="vector-effect:none;fill:#ffffff;fill-opacity:1;stroke:#000000;stroke-width:0.25;stroke-linecap:butt;stroke-linejoin:miter;stroke-miterlimit:4;stroke-dasharray:none;stroke-dashoffset:0;stroke-opacity:1"
         d="m 193.61832,147.99996 v -12.5 h -5.45955 v 12.5 z"
         id="path3449"
         sodipodi:nodetypes="ccccc" />
      <path
         style="vector-effect:none;fill:#ffffff;fill-opacity:1;stroke:#010000;stroke-width:0.25;stroke-linecap:butt;stroke-linejoin:miter;stroke-miterlimit:4;stroke-dasharray:none;stroke-dashoffset:0;stroke-opacity:1"
         d="m 188.15877,135.49996 h 5.45955 l -2.72978,-7.5 h -5.45955 z"
         id="path3451"
         sodipodi:nodetypes="ccccc" />
      <path
         style="vector-effect:none;fill:#ffffff;fill-opacity:1;stroke:#000000;stroke-width:0.25;stroke-linecap:butt;stroke-linejoin:miter;stroke-miterlimit:4;stroke-dasharray:none;stroke-dashoffset:0;stroke-opacity:1"
         d="m 199.07787,147.99996 v -12.5 h -5.45955 v 12.5 z"
         id="path3453"
         sodipodi:nodetypes="ccccc" />
      <path
         style="vector-effect:none;fill:#ffffff;fill-opacity:1;stroke:#010000;stroke-width:0.25;stroke-linecap:butt;stroke-linejoin:miter;stroke-miterlimit:4;stroke-dasharray:none;stroke-dashoffset:0;stroke-opacity:1"
         d="m 193.61832,135.49996 h 5.45955 l -2.72978,-7.5 h -5.45955 z"
         id="path3455"
         sodipodi:nodetypes="ccccc" />
      <text
         xml:space="preserve"
         style="font-style:normal;font-variant:normal;font-weight:normal;font-stretch:normal;font-size:4.23333px;line-height:1.25;font-family:STIX;-inkscape-font-specification:STIX;letter-spacing:0px;word-spacing:0px;fill:#000000;fill-opacity:1;stroke:none;stroke-width:0.264583"
         x="190.9984"
         y="142.72786"
         id="text3463"><tspan
           sodipodi:role="line"
           x="191.06049"
           y="142.72786"
           style="font-style:normal;font-variant:normal;font-weight:normal;font-stretch:normal;font-size:4.23333px;font-family:STIX;-inkscape-font-specification:STIX;text-align:center;text-anchor:middle;stroke-width:0.264583"
           id="tspan3461">B<tspan
   style="font-size:65%;baseline-shift:super"
   id="tspan3457">1</tspan><tspan
   style="font-size:65%;baseline-shift:sub"
   id="tspan3459"
   dx="-1.5">1</tspan></tspan></text>
      <text
         xml:space="preserve"
         style="font-style:normal;font-variant:normal;font-weight:normal;font-stretch:normal;font-size:4.23333px;line-height:1.25;font-family:STIX;-inkscape-font-specification:STIX;letter-spacing:0px;word-spacing:0px;fill:#000000;fill-opacity:1;stroke:none;stroke-width:0.264583"
         x="196.45795"
         y="142.72786"
         id="text3471"><tspan
           sodipodi:role="line"
           x="196.52003"
           y="142.72786"
           style="font-style:normal;font-variant:normal;font-weight:normal;font-stretch:normal;font-size:4.23333px;font-family:STIX;-inkscape-font-specification:STIX;text-align:center;text-anchor:middle;stroke-width:0.264583"
           id="tspan3469">B<tspan
   style="font-size:65%;baseline-shift:super"
   id="tspan3465">1</tspan><tspan
   style="font-size:65%;baseline-shift:sub"
   id="tspan3467"
   dx="-1.5">2</tspan></tspan></text>
      <path
         style="vector-effect:none;fill:#ffffff;fill-opacity:1;stroke:#000000;stroke-width:0.25;stroke-linecap:butt;stroke-linejoin:miter;stroke-miterlimit:4;stroke-dasharray:none;stroke-dashoffset:0;stroke-opacity:1"
         d="m 206.35729,147.99996 v -12.5 h -5.45955 v 12.5 z"
         id="path3473"
         sodipodi:nodetypes="ccccc" />
      <path
         style="vector-effect:none;fill:#ffffff;fill-opacity:1;stroke:#010000;stroke-width:0.25;stroke-linecap:butt;stroke-linejoin:miter;stroke-miterlimit:4;stroke-dasharray:none;stroke-dashoffset:0;stroke-opacity:1"
         d="m 200.89774,135.49996 h 5.45955 l -2.72978,-7.5 h -5.45955 z"
         id="path3475"
         sodipodi:nodetypes="ccccc" />
      <path
         style="vector-effect:none;fill:#ffffff;fill-opacity:1;stroke:#000000;stroke-width:0.25;stroke-linecap:butt;stroke-linejoin:miter;stroke-miterlimit:4;stroke-dasharray:none;stroke-dashoffset:0;stroke-opacity:1"
         d="m 211.81684,147.99996 v -12.5 h -5.45955 v 12.5 z"
         id="path3477"
         sodipodi:nodetypes="ccccc" />
      <path
         style="vector-effect:none;fill:#ffffff;fill-opacity:1;stroke:#010000;stroke-width:0.25;stroke-linecap:butt;stroke-linejoin:miter;stroke-miterlimit:4;stroke-dasharray:none;stroke-dashoffset:0;stroke-opacity:1"
         d="m 206.35729,135.49996 h 5.45955 l -2.72978,-7.5 h -5.45955 z"
         id="path3479"
         sodipodi:nodetypes="ccccc" />
      <text
         xml:space="preserve"
         style="font-style:normal;font-variant:normal;font-weight:normal;font-stretch:normal;font-size:4.23333px;line-height:1.25;font-family:STIX;-inkscape-font-specification:STIX;letter-spacing:0px;word-spacing:0px;fill:#000000;fill-opacity:1;stroke:none;stroke-width:0.264583"
         x="203.73737"
         y="142.72786"
         id="text3487"><tspan
           sodipodi:role="line"
           x="203.79945"
           y="142.72786"
           style="font-style:normal;font-variant:normal;font-weight:normal;font-stretch:normal;font-size:4.23333px;font-family:STIX;-inkscape-font-specification:STIX;text-align:center;text-anchor:middle;stroke-width:0.264583"
           id="tspan3485">B<tspan
   style="font-size:65%;baseline-shift:super"
   id="tspan3481">2</tspan><tspan
   style="font-size:65%;baseline-shift:sub"
   id="tspan3483"
   dx="-1.5">1</tspan></tspan></text>
      <text
         xml:space="preserve"
         style="font-style:normal;font-variant:normal;font-weight:normal;font-stretch:normal;font-size:4.23333px;line-height:1.25;font-family:STIX;-inkscape-font-specification:STIX;letter-spacing:0px;word-spacing:0px;fill:#000000;fill-opacity:1;stroke:none;stroke-width:0.264583"
         x="209.19691"
         y="142.72786"
         id="text3495"><tspan
           sodipodi:role="line"
           x="209.259"
           y="142.72786"
           style="font-style:normal;font-variant:normal;font-weight:normal;font-stretch:normal;font-size:4.23333px;font-family:STIX;-inkscape-font-specification:STIX;text-align:center;text-anchor:middle;stroke-width:0.264583"
           id="tspan3493">B<tspan
   style="font-size:65%;baseline-shift:super"
   id="tspan3489">2</tspan><tspan
   style="font-size:65%;baseline-shift:sub"
   id="tspan3491"
   dx="-1.5">2</tspan></tspan></text>
      <path
         style="vector-effect:none;fill:#ffffff;fill-opacity:1;stroke:#000000;stroke-width:0.25;stroke-linecap:butt;stroke-linejoin:miter;stroke-miterlimit:4;stroke-dasharray:none;stroke-dashoffset:0;stroke-opacity:1"
         d="m 219.09624,147.99996 v -12.5 h -5.45955 v 12.5 z"
         id="path3497"
         sodipodi:nodetypes="ccccc" />
      <path
         style="vector-effect:none;fill:#ffffff;fill-opacity:1;stroke:#010000;stroke-width:0.25;stroke-linecap:butt;stroke-linejoin:miter;stroke-miterlimit:4;stroke-dasharray:none;stroke-dashoffset:0;stroke-opacity:1"
         d="m 213.63669,135.49996 h 5.45955 l -2.72978,-7.5 h -5.45955 z"
         id="path3499"
         sodipodi:nodetypes="ccccc" />
      <path
         style="vector-effect:none;fill:#ffffff;fill-opacity:1;stroke:#000000;stroke-width:0.25;stroke-linecap:butt;stroke-linejoin:miter;stroke-miterlimit:4;stroke-dasharray:none;stroke-dashoffset:0;stroke-opacity:1"
         d="m 224.55579,147.99996 v -12.5 h -5.45955 v 12.5 z"
         id="path3501"
         sodipodi:nodetypes="ccccc" />
      <path
         style="vector-effect:none;fill:#ffffff;fill-opacity:1;stroke:#010000;stroke-width:0.25;stroke-linecap:butt;stroke-linejoin:miter;stroke-miterlimit:4;stroke-dasharray:none;stroke-dashoffset:0;stroke-opacity:1"
         d="m 219.09624,135.49996 h 5.45955 l -2.72978,-7.5 h -5.45955 z"
         id="path3503"
         sodipodi:nodetypes="ccccc" />
      <text
         xml:space="preserve"
         style="font-style:normal;font-variant:normal;font-weight:normal;font-stretch:normal;font-size:4.23333px;line-height:1.25;font-family:STIX;-inkscape-font-specification:STIX;letter-spacing:0px;word-spacing:0px;fill:#000000;fill-opacity:1;stroke:none;stroke-width:0.264583"
         x="216.47632"
         y="142.72786"
         id="text3511"><tspan
           sodipodi:role="line"
           x="216.53841"
           y="142.72786"
           style="font-style:normal;font-variant:normal;font-weight:normal;font-stretch:normal;font-size:4.23333px;font-family:STIX;-inkscape-font-specification:STIX;text-align:center;text-anchor:middle;stroke-width:0.264583"
           id="tspan3509">B<tspan
   style="font-size:65%;baseline-shift:super"
   id="tspan3505">3</tspan><tspan
   style="font-size:65%;baseline-shift:sub"
   id="tspan3507"
   dx="-1.5">1</tspan></tspan></text>
      <text
         xml:space="preserve"
         style="font-style:normal;font-variant:normal;font-weight:normal;font-stretch:normal;font-size:4.23333px;line-height:1.25;font-family:STIX;-inkscape-font-specification:STIX;letter-spacing:0px;word-spacing:0px;fill:#000000;fill-opacity:1;stroke:none;stroke-width:0.264583"
         x="221.93587"
         y="142.72786"
         id="text3519"><tspan
           sodipodi:role="line"
           x="221.99796"
           y="142.72786"
           style="font-style:normal;font-variant:normal;font-weight:normal;font-stretch:normal;font-size:4.23333px;font-family:STIX;-inkscape-font-specification:STIX;text-align:center;text-anchor:middle;stroke-width:0.264583"
           id="tspan3517">B<tspan
   style="font-size:65%;baseline-shift:super"
   id="tspan3513">3</tspan><tspan
   style="font-size:65%;baseline-shift:sub"
   id="tspan3515"
   dx="-1.5">2</tspan></tspan></text>
      <path
         style="vector-effect:none;fill:#ffffff;fill-opacity:1;stroke:#000000;stroke-width:0.25;stroke-linecap:butt;stroke-linejoin:miter;stroke-miterlimit:4;stroke-dasharray:none;stroke-dashoffset:0;stroke-opacity:1"
         d="m 231.8352,147.99996 v -12.5 h -5.45955 v 12.5 z"
         id="path3521"
         sodipodi:nodetypes="ccccc" />
      <path
         style="vector-effect:none;fill:#ffffff;fill-opacity:1;stroke:#010000;stroke-width:0.25;stroke-linecap:butt;stroke-linejoin:miter;stroke-miterlimit:4;stroke-dasharray:none;stroke-dashoffset:0;stroke-opacity:1"
         d="m 226.37565,135.49996 h 5.45955 l -2.72978,-7.5 h -5.45955 z"
         id="path3523"
         sodipodi:nodetypes="ccccc" />
      <path
         style="vector-effect:none;fill:#ffffff;fill-opacity:1;stroke:#000000;stroke-width:0.25;stroke-linecap:butt;stroke-linejoin:miter;stroke-miterlimit:4;stroke-dasharray:none;stroke-dashoffset:0;stroke-opacity:1"
         d="m 237.29475,147.99996 v -12.5 h -5.45955 v 12.5 z"
         id="path3525"
         sodipodi:nodetypes="ccccc" />
      <path
         style="vector-effect:none;fill:#ffffff;fill-opacity:1;stroke:#010000;stroke-width:0.25;stroke-linecap:butt;stroke-linejoin:miter;stroke-miterlimit:4;stroke-dasharray:none;stroke-dashoffset:0;stroke-opacity:1"
         d="m 231.8352,135.49996 h 5.45955 l -2.72978,-7.5 h -5.45955 z"
         id="path3527"
         sodipodi:nodetypes="ccccc" />
      <text
         xml:space="preserve"
         style="font-style:normal;font-variant:normal;font-weight:normal;font-stretch:normal;font-size:4.23333px;line-height:1.25;font-family:STIX;-inkscape-font-specification:STIX;letter-spacing:0px;word-spacing:0px;fill:#000000;fill-opacity:1;stroke:none;stroke-width:0.264583"
         x="229.21524"
         y="142.72786"
         id="text3535"><tspan
           sodipodi:role="line"
           x="229.27733"
           y="142.72786"
           style="font-style:normal;font-variant:normal;font-weight:normal;font-stretch:normal;font-size:4.23333px;font-family:STIX;-inkscape-font-specification:STIX;text-align:center;text-anchor:middle;stroke-width:0.264583"
           id="tspan3533">B<tspan
   style="font-size:65%;baseline-shift:super"
   id="tspan3529">4</tspan><tspan
   style="font-size:65%;baseline-shift:sub"
   id="tspan3531"
   dx="-1.5">1</tspan></tspan></text>
      <text
         xml:space="preserve"
         style="font-style:normal;font-variant:normal;font-weight:normal;font-stretch:normal;font-size:4.23333px;line-height:1.25;font-family:STIX;-inkscape-font-specification:STIX;letter-spacing:0px;word-spacing:0px;fill:#000000;fill-opacity:1;stroke:none;stroke-width:0.264583"
         x="234.6748"
         y="142.72786"
         id="text3543"><tspan
           sodipodi:role="line"
           x="234.73689"
           y="142.72786"
           style="font-style:normal;font-variant:normal;font-weight:normal;font-stretch:normal;font-size:4.23333px;font-family:STIX;-inkscape-font-specification:STIX;text-align:center;text-anchor:middle;stroke-width:0.264583"
           id="tspan3541">B<tspan
   style="font-size:65%;baseline-shift:super"
   id="tspan3537">4</tspan><tspan
   style="font-size:65%;baseline-shift:sub"
   id="tspan3539"
   dx="-1.5">2</tspan></tspan></text>
    </g>
    <text
       xml:space="preserve"
       style="font-style:normal;font-variant:normal;font-weight:normal;font-stretch:normal;font-size:4.23333px;line-height:1.25;font-family:STIX;-inkscape-font-specification:STIX;letter-spacing:0px;word-spacing:0px;fill:#000000;fill-opacity:1;stroke:none;stroke-width:0.264583"
       x="210.45193"
       y="110.7683"
       id="text3549"><tspan
         sodipodi:role="line"
         x="210.45193"
         y="110.7683"
         style="font-style:normal;font-variant:normal;font-weight:normal;font-stretch:normal;font-size:4.23333px;font-family:STIX;-inkscape-font-specification:STIX;text-align:center;text-anchor:middle;stroke-width:0.264583"
         id="tspan3547">(b)</tspan></text>
    <path
       style="vector-effect:none;fill:none;fill-opacity:0;stroke:#000000;stroke-width:1;stroke-linecap:butt;stroke-linejoin:miter;stroke-miterlimit:4;stroke-dasharray:none;stroke-dashoffset:0;stroke-opacity:1;marker-end:url(#marker3625)"
       d="m 239.1146,142.99996 h 3.4"
       id="path3621"
       sodipodi:nodetypes="cc" />
  </g>
</svg>
